FFT_stage/c_mapper_tb.vcd
$date
	Sat Jul  2 12:06:25 2022
$end
$version
	Icarus Verilog
$end
$timescale
	1ps
$end
$scope module tb_c_mapper $end
$var reg 1 ! clk $end
$var reg 16 " count [15:0] $end
$var reg 4 # stage [3:0] $end
$var reg 1 $ start $end
$scope module cmap $end
$var wire 1 ! clk $end
$var wire 1 % dv $end
$var wire 4 & stage [3:0] $end
$var wire 1 $ start $end
$var wire 2 ' select_c [1:0] $end
$var wire 16 ( data [15:0] $end
$var reg 3 ) count_c [2:0] $end
$var reg 4 * count_data [3:0] $end
$var reg 1 + data_valid $end
$var reg 4 , stage_data [3:0] $end
$var reg 1 - state $end
$scope module ram40_4kinst_physical $end
$var wire 16 . MASK [15:0] $end
$var wire 11 / RADDR [10:0] $end
$var wire 1 ! RCLK $end
$var wire 1 0 RCLKE $end
$var wire 1 1 RE $end
$var wire 16 2 RMASK_I [15:0] $end
$var wire 11 3 WADDR [10:0] $end
$var wire 1 4 WCLK $end
$var wire 1 5 WCLKE $end
$var wire 16 6 WDATA [15:0] $end
$var wire 1 7 WE $end
$var wire 16 8 WMASK_I [15:0] $end
$var wire 16 9 WDATA_I [15:0] $end
$var wire 16 : RDATA [15:0] $end
$var reg 16 ; RDATA_I [15:0] $end
$var integer 32 < i [31:0] $end
$scope begin genblk1 $end
$upscope $end
$scope begin genblk2 $end
$upscope $end
$scope begin genblk3 $end
$upscope $end
$scope begin genblk4 $end
$upscope $end
$upscope $end
$upscope $end
$upscope $end
$enddefinitions $end
#0
$dumpvars
b10000 <
bx ;
bx :
bz 9
bz 8
07
bz 6
z5
z4
bz 3
b0 2
11
z0
b0 /
bz .
0-
b0 ,
0+
b0 *
b0 )
bx (
b0 '
b1 &
0%
1$
b1 #
bx "
0!
$end
#100000
0$
1-
1!
#200000
0!
#300000
b1 '
b10000 /
b1 )
1!
#400000
0!
#500000
b10 '
b100000 /
b10 )
1!
#600000
0!
#700000
b0 '
b0 )
b1 /
b1 *
1!
#800000
0!
#900000
b1 '
b10001 /
b1 )
1!
#1000000
0!
#1100000
b10 '
b100001 /
b10 )
1!
#1200000
0!
#1300000
b0 '
b0 )
b10 /
b10 *
1!
#1400000
0!
#1500000
b1 '
b10010 /
b1 )
1!
#1600000
0!
#1700000
b10 '
b100010 /
b10 )
1!
#1800000
0!
#1900000
b0 '
b0 )
b11 /
b11 *
1!
#2000000
0!
#2100000
b1 '
b10011 /
b1 )
1!
#2200000
0!
#2300000
b10 '
b100011 /
b10 )
1!
#2400000
0!
#2500000
b0 '
b0 )
b100 /
b100 *
1!
#2600000
0!
#2700000
b1 '
b10100 /
b1 )
1!
#2800000
0!
#2900000
b10 '
b100100 /
b10 )
1!
#3000000
0!
#3100000
b0 '
b0 )
b101 /
b101 *
1!
#3200000
0!
#3300000
b1 '
b10101 /
b1 )
1!
#3400000
0!
#3500000
b10 '
b100101 /
b10 )
1!
#3600000
0!
#3700000
b0 '
b0 )
b110 /
b110 *
1!
#3800000
0!
#3900000
b1 '
b10110 /
b1 )
1!
#4000000
0!
#4100000
b10 '
b100110 /
b10 )
1!
#4200000
0!
#4300000
b0 '
b0 )
b111 /
b111 *
1!
#4400000
0!
#4500000
b1 '
b10111 /
b1 )
1!
#4600000
0!
#4700000
b10 '
b100111 /
b10 )
1!
#4800000
0!
#4900000
b0 '
b0 )
b1000 /
b1000 *
1!
#5000000
0!
#5100000
1%
1+
b1 '
b11000 /
b1 )
0-
1!
#5200000
0!
#5300000
0%
0+
1!
