FFT_stage/input_regs_tb.vcd
$date
	Fri Jul  8 10:45:45 2022
$end
$version
	Icarus Verilog
$end
$timescale
	1ps
$end
$scope module tb_input_regs $end
$var reg 4 ! addr [3:0] $end
$var reg 1 " clk $end
$var reg 6 # count [5:0] $end
$var reg 16 $ data [15:0] $end
$var reg 1 % we $end
$scope module in_regs $end
$var wire 4 & addr [3:0] $end
$var wire 1 " clk $end
$var wire 16 ' data [15:0] $end
$var wire 1 % we $end
$var wire 256 ( data_out [255:0] $end
$scope begin genblk1[0] $end
$upscope $end
$scope begin genblk1[1] $end
$upscope $end
$scope begin genblk1[2] $end
$upscope $end
$scope begin genblk1[3] $end
$upscope $end
$scope begin genblk1[4] $end
$upscope $end
$scope begin genblk1[5] $end
$upscope $end
$scope begin genblk1[6] $end
$upscope $end
$scope begin genblk1[7] $end
$upscope $end
$scope begin genblk1[8] $end
$upscope $end
$scope begin genblk1[9] $end
$upscope $end
$scope begin genblk1[10] $end
$upscope $end
$scope begin genblk1[11] $end
$upscope $end
$scope begin genblk1[12] $end
$upscope $end
$scope begin genblk1[13] $end
$upscope $end
$scope begin genblk1[14] $end
$upscope $end
$scope begin genblk1[15] $end
$upscope $end
$upscope $end
$upscope $end
$enddefinitions $end
#0
$dumpvars
bx (
b1111111111111111 '
b0 &
1%
b1111111111111111 $
b0 #
0"
b0 !
$end
#100000
bx1111111111111111 (
b1111111111111101 $
b1111111111111101 '
b1 !
b1 &
b1 #
1"
#200000
0"
#300000
b1111111111111011 $
b1111111111111011 '
b10 !
b10 &
b10 #
bx11111111111111011111111111111111 (
1"
#400000
0"
b1111111111111001 $
b1111111111111001 '
b11 !
b11 &
#500000
bx1111111111111001xxxxxxxxxxxxxxxx11111111111111011111111111111111 (
b1111111111110111 $
b1111111111110111 '
b100 !
b100 &
b11 #
1"
#600000
0"
#700000
b1111111111110101 $
b1111111111110101 '
b101 !
b101 &
b100 #
1"
#800000
0"
b1111111111110011 $
b1111111111110011 '
b110 !
b110 &
#900000
b1111111111110001 $
b1111111111110001 '
b111 !
b111 &
b101 #
1"
#1000000
0"
#1100000
b1111111111101111 $
b1111111111101111 '
b1000 !
b1000 &
b110 #
1"
#1200000
0"
b1111111111101101 $
b1111111111101101 '
b1001 !
b1001 &
#1300000
b1111111111101011 $
b1111111111101011 '
b1010 !
b1010 &
b111 #
1"
#1400000
0"
#1500000
b1111111111101001 $
b1111111111101001 '
b1011 !
b1011 &
b1000 #
1"
#1600000
0"
b1111111111100111 $
b1111111111100111 '
b1100 !
b1100 &
#1700000
b1111111111100101 $
b1111111111100101 '
b1101 !
b1101 &
b1001 #
1"
#1800000
0"
#1900000
b1111111111100011 $
b1111111111100011 '
b1110 !
b1110 &
b1010 #
1"
#2000000
0"
b1111111111100001 $
b1111111111100001 '
b1111 !
b1111 &
#2100000
b1111111111011111 $
b1111111111011111 '
b0 !
b0 &
b1011 #
1"
#2200000
0"
#2300000
b1111111111011101 $
b1111111111011101 '
b1 !
b1 &
b1100 #
bx1111111111111001xxxxxxxxxxxxxxxx11111111111111011111111111011111 (
1"
#2400000
0"
b1111111111011011 $
b1111111111011011 '
b10 !
b10 &
#2500000
bx1111111111111001111111111101101111111111111111011111111111011111 (
b1111111111011001 $
b1111111111011001 '
b11 !
b11 &
b1101 #
1"
#2600000
0"
#2700000
b1111111111010111 $
b1111111111010111 '
b100 !
b100 &
b1110 #
bx1111111111011001111111111101101111111111111111011111111111011111 (
1"
#2800000
0"
b1111111111010101 $
b1111111111010101 '
b101 !
b101 &
#2900000
b1111111111010011 $
b1111111111010011 '
b110 !
b110 &
b1111 #
1"
#3000000
0"
#3100000
b1111111111010001 $
b1111111111010001 '
b111 !
b111 &
b10000 #
1"
#3200000
0"
b1111111111001111 $
b1111111111001111 '
b1000 !
b1000 &
#3300000
b1111111111001101 $
b1111111111001101 '
b1001 !
b1001 &
b10001 #
1"
#3400000
0"
#3500000
b1111111111001011 $
b1111111111001011 '
b1010 !
b1010 &
b10010 #
1"
#3600000
0"
b1111111111001001 $
b1111111111001001 '
b1011 !
b1011 &
#3700000
b1111111111000111 $
b1111111111000111 '
b1100 !
b1100 &
b10011 #
1"
#3800000
0"
#3900000
b1111111111000101 $
b1111111111000101 '
b1101 !
b1101 &
b10100 #
1"
#4000000
0"
b1111111111000011 $
b1111111111000011 '
b1110 !
b1110 &
#4100000
b1111111111000001 $
b1111111111000001 '
b1111 !
b1111 &
b10101 #
1"
#4200000
0"
#4300000
b1111111110111111 $
b1111111110111111 '
b0 !
b0 &
b10110 #
1"
#4400000
0"
b1111111110111101 $
b1111111110111101 '
b1 !
b1 &
#4500000
bx1111111111011001111111111101101111111111101111011111111111011111 (
b1111111110111011 $
b1111111110111011 '
b10 !
b10 &
b10111 #
1"
#4600000
0"
#4700000
b1111111110111001 $
b1111111110111001 '
b11 !
b11 &
b11000 #
bx1111111111011001111111111011101111111111101111011111111111011111 (
1"
#4800000
0"
b1111111110110111 $
b1111111110110111 '
b100 !
b100 &
#4900000
b1111111110110101 $
b1111111110110101 '
b101 !
b101 &
b11001 #
1"
#5000000
0"
#5100000
b1111111110110011 $
b1111111110110011 '
b110 !
b110 &
b11010 #
1"
#5200000
0"
b1111111110110001 $
b1111111110110001 '
b111 !
b111 &
#5300000
b1111111110101111 $
b1111111110101111 '
b1000 !
b1000 &
b11011 #
1"
#5400000
0"
#5500000
b1111111110101101 $
b1111111110101101 '
b1001 !
b1001 &
b11100 #
1"
#5600000
0"
b1111111110101011 $
b1111111110101011 '
b1010 !
b1010 &
#5700000
b1111111110101001 $
b1111111110101001 '
b1011 !
b1011 &
b11101 #
1"
#5800000
0"
#5900000
b1111111110100111 $
b1111111110100111 '
b1100 !
b1100 &
b11110 #
1"
#6000000
0"
b1111111110100101 $
b1111111110100101 '
b1101 !
b1101 &
#6100000
b1111111110100011 $
b1111111110100011 '
b1110 !
b1110 &
b11111 #
1"
#6200000
0"
#6300000
b1111111110100001 $
b1111111110100001 '
b1111 !
b1111 &
b100000 #
1"
#6400000
0"
b1111111110011111 $
b1111111110011111 '
b0 !
b0 &
#6500000
bx1111111111011001111111111011101111111111101111011111111110011111 (
b1111111110011101 $
b1111111110011101 '
b1 !
b1 &
b100001 #
1"
#6600000
0"
#6700000
b1111111110011011 $
b1111111110011011 '
b10 !
b10 &
b100010 #
bx1111111111011001111111111011101111111111100111011111111110011111 (
1"
#6800000
0"
b1111111110011001 $
b1111111110011001 '
b11 !
b11 &
#6900000
bx1111111110011001111111111011101111111111100111011111111110011111 (
b1111111110010111 $
b1111111110010111 '
b100 !
b100 &
b100011 #
1"
#7000000
0"
#7100000
b1111111110010101 $
b1111111110010101 '
b101 !
b101 &
b100100 #
1"
#7200000
0"
b1111111110010011 $
b1111111110010011 '
b110 !
b110 &
#7300000
b1111111110010001 $
b1111111110010001 '
b111 !
b111 &
b100101 #
1"
#7400000
0"
#7500000
b1111111110001111 $
b1111111110001111 '
b1000 !
b1000 &
b100110 #
1"
#7600000
0"
b1111111110001101 $
b1111111110001101 '
b1001 !
b1001 &
#7700000
b1111111110001011 $
b1111111110001011 '
b1010 !
b1010 &
b100111 #
1"
#7800000
0"
#7900000
b1111111110001001 $
b1111111110001001 '
b1011 !
b1011 &
b101000 #
1"
#8000000
0"
b1111111110000111 $
b1111111110000111 '
b1100 !
b1100 &
#8100000
b1111111110000101 $
b1111111110000101 '
b1101 !
b1101 &
b101001 #
1"
#8200000
0"
#8300000
b1111111110000011 $
b1111111110000011 '
b1110 !
b1110 &
b101010 #
1"
#8400000
0"
b1111111110000001 $
b1111111110000001 '
b1111 !
b1111 &
#8500000
b1111111101111111 $
b1111111101111111 '
b0 !
b0 &
b101011 #
1"
#8600000
0"
#8700000
b1111111101111101 $
b1111111101111101 '
b1 !
b1 &
b101100 #
bx1111111110011001111111111011101111111111100111011111111101111111 (
1"
#8800000
0"
b1111111101111011 $
b1111111101111011 '
b10 !
b10 &
#8900000
bx1111111110011001111111110111101111111111100111011111111101111111 (
b1111111101111001 $
b1111111101111001 '
b11 !
b11 &
b101101 #
1"
#9000000
0"
#9100000
b1111111101110111 $
b1111111101110111 '
b100 !
b100 &
b101110 #
bx1111111101111001111111110111101111111111100111011111111101111111 (
1"
#9200000
0"
b1111111101110101 $
b1111111101110101 '
b101 !
b101 &
#9300000
b1111111101110011 $
b1111111101110011 '
b110 !
b110 &
b101111 #
1"
#9400000
0"
#9500000
b1111111101110001 $
b1111111101110001 '
b111 !
b111 &
b110000 #
1"
#9600000
0"
b1111111101101111 $
b1111111101101111 '
b1000 !
b1000 &
#9700000
b1111111101101101 $
b1111111101101101 '
b1001 !
b1001 &
b110001 #
1"
#9800000
0"
#9900000
b1111111101101011 $
b1111111101101011 '
b1010 !
b1010 &
b110010 #
1"
#10000000
0"
b1111111101101001 $
b1111111101101001 '
b1011 !
b1011 &
#10100000
b1111111101100111 $
b1111111101100111 '
b1100 !
b1100 &
b110011 #
1"
#10200000
0"
#10300000
b1111111101100101 $
b1111111101100101 '
b1101 !
b1101 &
b110100 #
1"
#10400000
0"
b1111111101100011 $
b1111111101100011 '
b1110 !
b1110 &
#10500000
b1111111101100001 $
b1111111101100001 '
b1111 !
b1111 &
b110101 #
1"
#10600000
0"
#10700000
b1111111101011111 $
b1111111101011111 '
b0 !
b0 &
b110110 #
1"
#10800000
0"
b1111111101011101 $
b1111111101011101 '
b1 !
b1 &
#10900000
bx1111111101111001111111110111101111111111010111011111111101111111 (
b1111111101011011 $
b1111111101011011 '
b10 !
b10 &
b110111 #
1"
#11000000
0"
#11100000
b1111111101011001 $
b1111111101011001 '
b11 !
b11 &
b111000 #
bx1111111101111001111111110101101111111111010111011111111101111111 (
1"
#11200000
0"
b1111111101010111 $
b1111111101010111 '
b100 !
b100 &
#11300000
b1111111101010101 $
b1111111101010101 '
b101 !
b101 &
b111001 #
1"
#11400000
0"
#11500000
b1111111101010011 $
b1111111101010011 '
b110 !
b110 &
b111010 #
1"
#11600000
0"
b1111111101010001 $
b1111111101010001 '
b111 !
b111 &
#11700000
b1111111101001111 $
b1111111101001111 '
b1000 !
b1000 &
b111011 #
1"
#11800000
0"
#11900000
b1111111101001101 $
b1111111101001101 '
b1001 !
b1001 &
b111100 #
1"
#12000000
0"
b1111111101001011 $
b1111111101001011 '
b1010 !
b1010 &
#12100000
b1111111101001001 $
b1111111101001001 '
b1011 !
b1011 &
b111101 #
1"
#12200000
0"
#12300000
b1111111101000111 $
b1111111101000111 '
b1100 !
b1100 &
b111110 #
1"
#12400000
0"
b1111111101000101 $
b1111111101000101 '
b1101 !
b1101 &
#12500000
b1111111101000011 $
b1111111101000011 '
b1110 !
b1110 &
b111111 #
1"
#12600000
0"
#12700000
b1111111101000001 $
b1111111101000001 '
b1111 !
b1111 &
b0 #
1"
#12800000
0"
b1111111100111111 $
b1111111100111111 '
b0 !
b0 &
#12900000
bx1111111101111001111111110101101111111111010111011111111100111111 (
b1111111100111101 $
b1111111100111101 '
b1 !
b1 &
b1 #
1"
#13000000
0"
#13100000
b1111111100111011 $
b1111111100111011 '
b10 !
b10 &
b10 #
bx1111111101111001111111110101101111111111001111011111111100111111 (
1"
#13200000
0"
b1111111100111001 $
b1111111100111001 '
b11 !
b11 &
#13300000
bx1111111100111001111111110101101111111111001111011111111100111111 (
b1111111100110111 $
b1111111100110111 '
b100 !
b100 &
b11 #
1"
#13400000
0"
#13500000
b1111111100110101 $
b1111111100110101 '
b101 !
b101 &
b100 #
1"
#13600000
0"
b1111111100110011 $
b1111111100110011 '
b110 !
b110 &
#13700000
b1111111100110001 $
b1111111100110001 '
b111 !
b111 &
b101 #
1"
#13800000
0"
#13900000
b1111111100101111 $
b1111111100101111 '
b1000 !
b1000 &
b110 #
1"
#14000000
0"
b1111111100101101 $
b1111111100101101 '
b1001 !
b1001 &
#14100000
b1111111100101011 $
b1111111100101011 '
b1010 !
b1010 &
b111 #
1"
#14200000
0"
#14300000
b1111111100101001 $
b1111111100101001 '
b1011 !
b1011 &
b1000 #
1"
#14400000
0"
b1111111100100111 $
b1111111100100111 '
b1100 !
b1100 &
#14500000
b1111111100100101 $
b1111111100100101 '
b1101 !
b1101 &
b1001 #
1"
#14600000
0"
#14700000
b1111111100100011 $
b1111111100100011 '
b1110 !
b1110 &
b1010 #
1"
#14800000
0"
b1111111100100001 $
b1111111100100001 '
b1111 !
b1111 &
#14900000
b1111111100011111 $
b1111111100011111 '
b0 !
b0 &
b1011 #
1"
#15000000
0"
#15100000
b1111111100011101 $
b1111111100011101 '
b1 !
b1 &
b1100 #
bx1111111100111001111111110101101111111111001111011111111100011111 (
1"
#15200000
0"
b1111111100011011 $
b1111111100011011 '
b10 !
b10 &
#15300000
bx1111111100111001111111110001101111111111001111011111111100011111 (
b1111111100011001 $
b1111111100011001 '
b11 !
b11 &
b1101 #
1"
#15400000
0"
#15500000
b1111111100010111 $
b1111111100010111 '
b100 !
b100 &
b1110 #
bx1111111100011001111111110001101111111111001111011111111100011111 (
1"
#15600000
0"
b1111111100010101 $
b1111111100010101 '
b101 !
b101 &
#15700000
b1111111100010011 $
b1111111100010011 '
b110 !
b110 &
b1111 #
1"
#15800000
0"
#15900000
b1111111100010001 $
b1111111100010001 '
b111 !
b111 &
b10000 #
1"
#16000000
0"
b1111111100001111 $
b1111111100001111 '
b1000 !
b1000 &
#16100000
b1111111100001101 $
b1111111100001101 '
b1001 !
b1001 &
b10001 #
1"
#16200000
0"
#16300000
b1111111100001011 $
b1111111100001011 '
b1010 !
b1010 &
b10010 #
1"
#16400000
0"
b1111111100001001 $
b1111111100001001 '
b1011 !
b1011 &
#16500000
b1111111100000111 $
b1111111100000111 '
b1100 !
b1100 &
b10011 #
1"
#16600000
0"
#16700000
b1111111100000101 $
b1111111100000101 '
b1101 !
b1101 &
b10100 #
1"
#16800000
0"
b1111111100000011 $
b1111111100000011 '
b1110 !
b1110 &
#16900000
b1111111100000001 $
b1111111100000001 '
b1111 !
b1111 &
b10101 #
1"
#17000000
0"
#17100000
b1111111011111111 $
b1111111011111111 '
b0 !
b0 &
b10110 #
1"
#17200000
0"
b1111111011111101 $
b1111111011111101 '
b1 !
b1 &
#17300000
bx1111111100011001111111110001101111111110111111011111111100011111 (
b1111111011111011 $
b1111111011111011 '
b10 !
b10 &
b10111 #
1"
#17400000
0"
#17500000
b1111111011111001 $
b1111111011111001 '
b11 !
b11 &
b11000 #
bx1111111100011001111111101111101111111110111111011111111100011111 (
1"
#17600000
0"
b1111111011110111 $
b1111111011110111 '
b100 !
b100 &
#17700000
b1111111011110101 $
b1111111011110101 '
b101 !
b101 &
b11001 #
1"
#17800000
0"
#17900000
b1111111011110011 $
b1111111011110011 '
b110 !
b110 &
b11010 #
1"
#18000000
0"
b1111111011110001 $
b1111111011110001 '
b111 !
b111 &
#18100000
b1111111011101111 $
b1111111011101111 '
b1000 !
b1000 &
b11011 #
1"
#18200000
0"
#18300000
b1111111011101101 $
b1111111011101101 '
b1001 !
b1001 &
b11100 #
1"
#18400000
0"
b1111111011101011 $
b1111111011101011 '
b1010 !
b1010 &
#18500000
b1111111011101001 $
b1111111011101001 '
b1011 !
b1011 &
b11101 #
1"
#18600000
0"
#18700000
b1111111011100111 $
b1111111011100111 '
b1100 !
b1100 &
b11110 #
1"
#18800000
0"
b1111111011100101 $
b1111111011100101 '
b1101 !
b1101 &
#18900000
b1111111011100011 $
b1111111011100011 '
b1110 !
b1110 &
b11111 #
1"
#19000000
0"
#19100000
b1111111011100001 $
b1111111011100001 '
b1111 !
b1111 &
b100000 #
1"
#19200000
0"
b1111111011011111 $
b1111111011011111 '
b0 !
b0 &
#19300000
bx1111111100011001111111101111101111111110111111011111111011011111 (
b1111111011011101 $
b1111111011011101 '
b1 !
b1 &
b100001 #
1"
#19400000
0"
#19500000
b1111111011011011 $
b1111111011011011 '
b10 !
b10 &
b100010 #
bx1111111100011001111111101111101111111110110111011111111011011111 (
1"
#19600000
0"
b1111111011011001 $
b1111111011011001 '
b11 !
b11 &
#19700000
bx1111111011011001111111101111101111111110110111011111111011011111 (
b1111111011010111 $
b1111111011010111 '
b100 !
b100 &
b100011 #
1"
#19800000
0"
#19900000
b1111111011010101 $
b1111111011010101 '
b101 !
b101 &
b100100 #
1"
#20000000
0"
b1111111011010011 $
b1111111011010011 '
b110 !
b110 &
#20100000
b1111111011010001 $
b1111111011010001 '
b111 !
b111 &
b100101 #
1"
#20200000
0"
#20300000
b1111111011001111 $
b1111111011001111 '
b1000 !
b1000 &
b100110 #
1"
#20400000
0"
b1111111011001101 $
b1111111011001101 '
b1001 !
b1001 &
#20500000
b1111111011001011 $
b1111111011001011 '
b1010 !
b1010 &
b100111 #
1"
#20600000
0"
#20700000
b1111111011001001 $
b1111111011001001 '
b1011 !
b1011 &
b101000 #
1"
#20800000
0"
b1111111011000111 $
b1111111011000111 '
b1100 !
b1100 &
#20900000
b1111111011000101 $
b1111111011000101 '
b1101 !
b1101 &
b101001 #
1"
#21000000
0"
#21100000
b1111111011000011 $
b1111111011000011 '
b1110 !
b1110 &
b101010 #
1"
#21200000
0"
b1111111011000001 $
b1111111011000001 '
b1111 !
b1111 &
#21300000
b1111111010111111 $
b1111111010111111 '
b0 !
b0 &
b101011 #
1"
#21400000
0"
#21500000
b1111111010111101 $
b1111111010111101 '
b1 !
b1 &
b101100 #
bx1111111011011001111111101111101111111110110111011111111010111111 (
1"
#21600000
0"
b1111111010111011 $
b1111111010111011 '
b10 !
b10 &
#21700000
bx1111111011011001111111101011101111111110110111011111111010111111 (
b1111111010111001 $
b1111111010111001 '
b11 !
b11 &
b101101 #
1"
#21800000
0"
#21900000
b1111111010110111 $
b1111111010110111 '
b100 !
b100 &
b101110 #
bx1111111010111001111111101011101111111110110111011111111010111111 (
1"
#22000000
0"
b1111111010110101 $
b1111111010110101 '
b101 !
b101 &
#22100000
b1111111010110011 $
b1111111010110011 '
b110 !
b110 &
b101111 #
1"
#22200000
0"
#22300000
b1111111010110001 $
b1111111010110001 '
b111 !
b111 &
b110000 #
1"
#22400000
0"
b1111111010101111 $
b1111111010101111 '
b1000 !
b1000 &
#22500000
b1111111010101101 $
b1111111010101101 '
b1001 !
b1001 &
b110001 #
1"
#22600000
0"
#22700000
b1111111010101011 $
b1111111010101011 '
b1010 !
b1010 &
b110010 #
1"
#22800000
0"
b1111111010101001 $
b1111111010101001 '
b1011 !
b1011 &
#22900000
b1111111010100111 $
b1111111010100111 '
b1100 !
b1100 &
b110011 #
1"
#23000000
0"
#23100000
b1111111010100101 $
b1111111010100101 '
b1101 !
b1101 &
b110100 #
1"
#23200000
0"
b1111111010100011 $
b1111111010100011 '
b1110 !
b1110 &
#23300000
b1111111010100001 $
b1111111010100001 '
b1111 !
b1111 &
b110101 #
1"
#23400000
0"
#23500000
b1111111010011111 $
b1111111010011111 '
b0 !
b0 &
b110110 #
1"
#23600000
0"
b1111111010011101 $
b1111111010011101 '
b1 !
b1 &
#23700000
bx1111111010111001111111101011101111111110100111011111111010111111 (
b1111111010011011 $
b1111111010011011 '
b10 !
b10 &
b110111 #
1"
#23800000
0"
#23900000
b1111111010011001 $
b1111111010011001 '
b11 !
b11 &
b111000 #
bx1111111010111001111111101001101111111110100111011111111010111111 (
1"
#24000000
0"
b1111111010010111 $
b1111111010010111 '
b100 !
b100 &
#24100000
b1111111010010101 $
b1111111010010101 '
b101 !
b101 &
b111001 #
1"
#24200000
0"
#24300000
b1111111010010011 $
b1111111010010011 '
b110 !
b110 &
b111010 #
1"
#24400000
0"
b1111111010010001 $
b1111111010010001 '
b111 !
b111 &
#24500000
b1111111010001111 $
b1111111010001111 '
b1000 !
b1000 &
b111011 #
1"
#24600000
0"
#24700000
b1111111010001101 $
b1111111010001101 '
b1001 !
b1001 &
b111100 #
1"
#24800000
0"
b1111111010001011 $
b1111111010001011 '
b1010 !
b1010 &
#24900000
b1111111010001001 $
b1111111010001001 '
b1011 !
b1011 &
b111101 #
1"
#25000000
0"
#25100000
b1111111010000111 $
b1111111010000111 '
b1100 !
b1100 &
b111110 #
1"
#25200000
0"
b1111111010000101 $
b1111111010000101 '
b1101 !
b1101 &
#25300000
b1111111010000011 $
b1111111010000011 '
b1110 !
b1110 &
b111111 #
1"
#25400000
0"
#25500000
b1111111010000001 $
b1111111010000001 '
b1111 !
b1111 &
b0 #
1"
#25600000
0"
b1111111001111111 $
b1111111001111111 '
b0 !
b0 &
#25700000
bx1111111010111001111111101001101111111110100111011111111001111111 (
b1111111001111101 $
b1111111001111101 '
b1 !
b1 &
b1 #
1"
#25800000
0"
#25900000
b1111111001111011 $
b1111111001111011 '
b10 !
b10 &
b10 #
bx1111111010111001111111101001101111111110011111011111111001111111 (
1"
#26000000
0"
b1111111001111001 $
b1111111001111001 '
b11 !
b11 &
#26100000
bx1111111001111001111111101001101111111110011111011111111001111111 (
b1111111001110111 $
b1111111001110111 '
b100 !
b100 &
b11 #
1"
#26200000
0"
#26300000
b1111111001110101 $
b1111111001110101 '
b101 !
b101 &
b100 #
1"
#26400000
0"
b1111111001110011 $
b1111111001110011 '
b110 !
b110 &
#26500000
b1111111001110001 $
b1111111001110001 '
b111 !
b111 &
b101 #
1"
#26600000
0"
#26700000
b1111111001101111 $
b1111111001101111 '
b1000 !
b1000 &
b110 #
1"
#26800000
0"
b1111111001101101 $
b1111111001101101 '
b1001 !
b1001 &
#26900000
b1111111001101011 $
b1111111001101011 '
b1010 !
b1010 &
b111 #
1"
#27000000
0"
#27100000
b1111111001101001 $
b1111111001101001 '
b1011 !
b1011 &
b1000 #
1"
#27200000
0"
b1111111001100111 $
b1111111001100111 '
b1100 !
b1100 &
#27300000
b1111111001100101 $
b1111111001100101 '
b1101 !
b1101 &
b1001 #
1"
#27400000
0"
#27500000
b1111111001100011 $
b1111111001100011 '
b1110 !
b1110 &
b1010 #
1"
#27600000
0"
b1111111001100001 $
b1111111001100001 '
b1111 !
b1111 &
#27700000
b1111111001011111 $
b1111111001011111 '
b0 !
b0 &
b1011 #
1"
#27800000
0"
#27900000
b1111111001011101 $
b1111111001011101 '
b1 !
b1 &
b1100 #
bx1111111001111001111111101001101111111110011111011111111001011111 (
1"
#28000000
0"
b1111111001011011 $
b1111111001011011 '
b10 !
b10 &
#28100000
bx1111111001111001111111100101101111111110011111011111111001011111 (
b1111111001011001 $
b1111111001011001 '
b11 !
b11 &
b1101 #
1"
#28200000
0"
#28300000
b1111111001010111 $
b1111111001010111 '
b100 !
b100 &
b1110 #
bx1111111001011001111111100101101111111110011111011111111001011111 (
1"
#28400000
0"
b1111111001010101 $
b1111111001010101 '
b101 !
b101 &
#28500000
b1111111001010011 $
b1111111001010011 '
b110 !
b110 &
b1111 #
1"
#28600000
0"
#28700000
b1111111001010001 $
b1111111001010001 '
b111 !
b111 &
b10000 #
1"
#28800000
0"
b1111111001001111 $
b1111111001001111 '
b1000 !
b1000 &
#28900000
b1111111001001101 $
b1111111001001101 '
b1001 !
b1001 &
b10001 #
1"
#29000000
0"
#29100000
b1111111001001011 $
b1111111001001011 '
b1010 !
b1010 &
b10010 #
1"
#29200000
0"
b1111111001001001 $
b1111111001001001 '
b1011 !
b1011 &
#29300000
b1111111001000111 $
b1111111001000111 '
b1100 !
b1100 &
b10011 #
1"
#29400000
0"
#29500000
b1111111001000101 $
b1111111001000101 '
b1101 !
b1101 &
b10100 #
1"
#29600000
0"
b1111111001000011 $
b1111111001000011 '
b1110 !
b1110 &
#29700000
b1111111001000001 $
b1111111001000001 '
b1111 !
b1111 &
b10101 #
1"
#29800000
0"
#29900000
b1111111000111111 $
b1111111000111111 '
b0 !
b0 &
b10110 #
1"
#30000000
0"
b1111111000111101 $
b1111111000111101 '
b1 !
b1 &
#30100000
bx1111111001011001111111100101101111111110001111011111111001011111 (
b1111111000111011 $
b1111111000111011 '
b10 !
b10 &
b10111 #
1"
#30200000
0"
#30300000
b1111111000111001 $
b1111111000111001 '
b11 !
b11 &
b11000 #
bx1111111001011001111111100011101111111110001111011111111001011111 (
1"
#30400000
0"
b1111111000110111 $
b1111111000110111 '
b100 !
b100 &
#30500000
b1111111000110101 $
b1111111000110101 '
b101 !
b101 &
b11001 #
1"
#30600000
0"
#30700000
b1111111000110011 $
b1111111000110011 '
b110 !
b110 &
b11010 #
1"
#30800000
0"
b1111111000110001 $
b1111111000110001 '
b111 !
b111 &
#30900000
b1111111000101111 $
b1111111000101111 '
b1000 !
b1000 &
b11011 #
1"
#31000000
0"
#31100000
b1111111000101101 $
b1111111000101101 '
b1001 !
b1001 &
b11100 #
1"
#31200000
0"
b1111111000101011 $
b1111111000101011 '
b1010 !
b1010 &
#31300000
b1111111000101001 $
b1111111000101001 '
b1011 !
b1011 &
b11101 #
1"
#31400000
0"
#31500000
b1111111000100111 $
b1111111000100111 '
b1100 !
b1100 &
b11110 #
1"
#31600000
0"
b1111111000100101 $
b1111111000100101 '
b1101 !
b1101 &
#31700000
b1111111000100011 $
b1111111000100011 '
b1110 !
b1110 &
b11111 #
1"
#31800000
0"
#31900000
b1111111000100001 $
b1111111000100001 '
b1111 !
b1111 &
b100000 #
1"
#32000000
0"
b1111111000011111 $
b1111111000011111 '
b0 !
b0 &
#32100000
bx1111111001011001111111100011101111111110001111011111111000011111 (
b1111111000011101 $
b1111111000011101 '
b1 !
b1 &
b100001 #
1"
#32200000
0"
#32300000
b1111111000011011 $
b1111111000011011 '
b10 !
b10 &
b100010 #
bx1111111001011001111111100011101111111110000111011111111000011111 (
1"
#32400000
0"
b1111111000011001 $
b1111111000011001 '
b11 !
b11 &
#32500000
bx1111111000011001111111100011101111111110000111011111111000011111 (
b1111111000010111 $
b1111111000010111 '
b100 !
b100 &
b100011 #
1"
#32600000
0"
#32700000
b1111111000010101 $
b1111111000010101 '
b101 !
b101 &
b100100 #
1"
#32800000
0"
b1111111000010011 $
b1111111000010011 '
b110 !
b110 &
#32900000
b1111111000010001 $
b1111111000010001 '
b111 !
b111 &
b100101 #
1"
#33000000
0"
#33100000
b1111111000001111 $
b1111111000001111 '
b1000 !
b1000 &
b100110 #
1"
#33200000
0"
b1111111000001101 $
b1111111000001101 '
b1001 !
b1001 &
#33300000
b1111111000001011 $
b1111111000001011 '
b1010 !
b1010 &
b100111 #
1"
#33400000
0"
#33500000
b1111111000001001 $
b1111111000001001 '
b1011 !
b1011 &
b101000 #
1"
#33600000
0"
b1111111000000111 $
b1111111000000111 '
b1100 !
b1100 &
#33700000
b1111111000000101 $
b1111111000000101 '
b1101 !
b1101 &
b101001 #
1"
#33800000
0"
#33900000
b1111111000000011 $
b1111111000000011 '
b1110 !
b1110 &
b101010 #
1"
#34000000
0"
b1111111000000001 $
b1111111000000001 '
b1111 !
b1111 &
#34100000
b1111110111111111 $
b1111110111111111 '
b0 !
b0 &
b101011 #
1"
#34200000
0"
#34300000
b1111110111111101 $
b1111110111111101 '
b1 !
b1 &
b101100 #
bx1111111000011001111111100011101111111110000111011111110111111111 (
1"
#34400000
0"
b1111110111111011 $
b1111110111111011 '
b10 !
b10 &
#34500000
bx1111111000011001111111011111101111111110000111011111110111111111 (
b1111110111111001 $
b1111110111111001 '
b11 !
b11 &
b101101 #
1"
#34600000
0"
#34700000
b1111110111110111 $
b1111110111110111 '
b100 !
b100 &
b101110 #
bx1111110111111001111111011111101111111110000111011111110111111111 (
1"
#34800000
0"
b1111110111110101 $
b1111110111110101 '
b101 !
b101 &
#34900000
b1111110111110011 $
b1111110111110011 '
b110 !
b110 &
b101111 #
1"
#35000000
0"
#35100000
b1111110111110001 $
b1111110111110001 '
b111 !
b111 &
b110000 #
1"
#35200000
0"
b1111110111101111 $
b1111110111101111 '
b1000 !
b1000 &
#35300000
b1111110111101101 $
b1111110111101101 '
b1001 !
b1001 &
b110001 #
1"
#35400000
0"
#35500000
b1111110111101011 $
b1111110111101011 '
b1010 !
b1010 &
b110010 #
1"
#35600000
0"
b1111110111101001 $
b1111110111101001 '
b1011 !
b1011 &
#35700000
b1111110111100111 $
b1111110111100111 '
b1100 !
b1100 &
b110011 #
1"
#35800000
0"
#35900000
b1111110111100101 $
b1111110111100101 '
b1101 !
b1101 &
b110100 #
1"
#36000000
0"
b1111110111100011 $
b1111110111100011 '
b1110 !
b1110 &
#36100000
b1111110111100001 $
b1111110111100001 '
b1111 !
b1111 &
b110101 #
1"
#36200000
0"
#36300000
b1111110111011111 $
b1111110111011111 '
b0 !
b0 &
b110110 #
1"
#36400000
0"
b1111110111011101 $
b1111110111011101 '
b1 !
b1 &
#36500000
bx1111110111111001111111011111101111111101110111011111110111111111 (
b1111110111011011 $
b1111110111011011 '
b10 !
b10 &
b110111 #
1"
#36600000
0"
#36700000
b1111110111011001 $
b1111110111011001 '
b11 !
b11 &
b111000 #
bx1111110111111001111111011101101111111101110111011111110111111111 (
1"
#36800000
0"
b1111110111010111 $
b1111110111010111 '
b100 !
b100 &
#36900000
b1111110111010101 $
b1111110111010101 '
b101 !
b101 &
b111001 #
1"
#37000000
0"
#37100000
b1111110111010011 $
b1111110111010011 '
b110 !
b110 &
b111010 #
1"
#37200000
0"
b1111110111010001 $
b1111110111010001 '
b111 !
b111 &
#37300000
b1111110111001111 $
b1111110111001111 '
b1000 !
b1000 &
b111011 #
1"
#37400000
0"
#37500000
b1111110111001101 $
b1111110111001101 '
b1001 !
b1001 &
b111100 #
1"
#37600000
0"
b1111110111001011 $
b1111110111001011 '
b1010 !
b1010 &
#37700000
b1111110111001001 $
b1111110111001001 '
b1011 !
b1011 &
b111101 #
1"
#37800000
0"
#37900000
b1111110111000111 $
b1111110111000111 '
b1100 !
b1100 &
b111110 #
1"
#38000000
0"
b1111110111000101 $
b1111110111000101 '
b1101 !
b1101 &
