sim/multsim/mult_tb.vcd
$date
	Fri Jul 29 18:26:08 2022
$end
$version
	Icarus Verilog
$end
$timescale
	1ps
$end
$scope module tb_mult $end
$var reg 1 ! clk $end
$var reg 8 " count [7:0] $end
$var reg 8 # data_0 [7:0] $end
$var reg 9 $ data_1 [8:0] $end
$var reg 1 % start $end
$scope module Bit_mult $end
$var wire 1 ! clk $end
$var wire 8 & in_0 [7:0] $end
$var wire 9 ' in_1 [8:0] $end
$var wire 1 % start $end
$var wire 17 ( w_o [16:0] $end
$var reg 4 ) count [3:0] $end
$var reg 1 * data_valid $end
$var reg 17 + in_0_exp [16:0] $end
$var reg 1 , o_busy $end
$var reg 17 - out [16:0] $end
$var reg 17 . p [16:0] $end
$var reg 17 / t [16:0] $end
$scope module adder $end
$var wire 17 0 input1 [16:0] $end
$var wire 17 1 input2 [16:0] $end
$var wire 1 2 carry_out $end
$var wire 17 3 carry [16:0] $end
$var wire 17 4 answer [16:0] $end
$scope begin generate_N_bit_Adder[0] $end
$scope begin genblk2 $end
$scope module f $end
$var wire 1 5 c $end
$var wire 1 6 s $end
$var wire 1 7 x $end
$var wire 1 8 y $end
$upscope $end
$upscope $end
$upscope $end
$scope begin generate_N_bit_Adder[1] $end
$scope begin genblk3 $end
$scope module f $end
$var wire 1 9 c_in $end
$var wire 1 : c_out $end
$var wire 1 ; s $end
$var wire 1 < x $end
$var wire 1 = y $end
$upscope $end
$upscope $end
$upscope $end
$scope begin generate_N_bit_Adder[2] $end
$scope begin genblk3 $end
$scope module f $end
$var wire 1 > c_in $end
$var wire 1 ? c_out $end
$var wire 1 @ s $end
$var wire 1 A x $end
$var wire 1 B y $end
$upscope $end
$upscope $end
$upscope $end
$scope begin generate_N_bit_Adder[3] $end
$scope begin genblk3 $end
$scope module f $end
$var wire 1 C c_in $end
$var wire 1 D c_out $end
$var wire 1 E s $end
$var wire 1 F x $end
$var wire 1 G y $end
$upscope $end
$upscope $end
$upscope $end
$scope begin generate_N_bit_Adder[4] $end
$scope begin genblk3 $end
$scope module f $end
$var wire 1 H c_in $end
$var wire 1 I c_out $end
$var wire 1 J s $end
$var wire 1 K x $end
$var wire 1 L y $end
$upscope $end
$upscope $end
$upscope $end
$scope begin generate_N_bit_Adder[5] $end
$scope begin genblk3 $end
$scope module f $end
$var wire 1 M c_in $end
$var wire 1 N c_out $end
$var wire 1 O s $end
$var wire 1 P x $end
$var wire 1 Q y $end
$upscope $end
$upscope $end
$upscope $end
$scope begin generate_N_bit_Adder[6] $end
$scope begin genblk3 $end
$scope module f $end
$var wire 1 R c_in $end
$var wire 1 S c_out $end
$var wire 1 T s $end
$var wire 1 U x $end
$var wire 1 V y $end
$upscope $end
$upscope $end
$upscope $end
$scope begin generate_N_bit_Adder[7] $end
$scope begin genblk3 $end
$scope module f $end
$var wire 1 W c_in $end
$var wire 1 X c_out $end
$var wire 1 Y s $end
$var wire 1 Z x $end
$var wire 1 [ y $end
$upscope $end
$upscope $end
$upscope $end
$scope begin generate_N_bit_Adder[8] $end
$scope begin genblk3 $end
$scope module f $end
$var wire 1 \ c_in $end
$var wire 1 ] c_out $end
$var wire 1 ^ s $end
$var wire 1 _ x $end
$var wire 1 ` y $end
$upscope $end
$upscope $end
$upscope $end
$scope begin generate_N_bit_Adder[9] $end
$scope begin genblk3 $end
$scope module f $end
$var wire 1 a c_in $end
$var wire 1 b c_out $end
$var wire 1 c s $end
$var wire 1 d x $end
$var wire 1 e y $end
$upscope $end
$upscope $end
$upscope $end
$scope begin generate_N_bit_Adder[10] $end
$scope begin genblk3 $end
$scope module f $end
$var wire 1 f c_in $end
$var wire 1 g c_out $end
$var wire 1 h s $end
$var wire 1 i x $end
$var wire 1 j y $end
$upscope $end
$upscope $end
$upscope $end
$scope begin generate_N_bit_Adder[11] $end
$scope begin genblk3 $end
$scope module f $end
$var wire 1 k c_in $end
$var wire 1 l c_out $end
$var wire 1 m s $end
$var wire 1 n x $end
$var wire 1 o y $end
$upscope $end
$upscope $end
$upscope $end
$scope begin generate_N_bit_Adder[12] $end
$scope begin genblk3 $end
$scope module f $end
$var wire 1 p c_in $end
$var wire 1 q c_out $end
$var wire 1 r s $end
$var wire 1 s x $end
$var wire 1 t y $end
$upscope $end
$upscope $end
$upscope $end
$scope begin generate_N_bit_Adder[13] $end
$scope begin genblk3 $end
$scope module f $end
$var wire 1 u c_in $end
$var wire 1 v c_out $end
$var wire 1 w s $end
$var wire 1 x x $end
$var wire 1 y y $end
$upscope $end
$upscope $end
$upscope $end
$scope begin generate_N_bit_Adder[14] $end
$scope begin genblk3 $end
$scope module f $end
$var wire 1 z c_in $end
$var wire 1 { c_out $end
$var wire 1 | s $end
$var wire 1 } x $end
$var wire 1 ~ y $end
$upscope $end
$upscope $end
$upscope $end
$scope begin generate_N_bit_Adder[15] $end
$scope begin genblk3 $end
$scope module f $end
$var wire 1 !" c_in $end
$var wire 1 "" c_out $end
$var wire 1 #" s $end
$var wire 1 $" x $end
$var wire 1 %" y $end
$upscope $end
$upscope $end
$upscope $end
$scope begin generate_N_bit_Adder[16] $end
$scope begin genblk3 $end
$scope module f $end
$var wire 1 &" c_in $end
$var wire 1 '" c_out $end
$var wire 1 (" s $end
$var wire 1 )" x $end
$var wire 1 *" y $end
$upscope $end
$upscope $end
$upscope $end
$upscope $end
$upscope $end
$upscope $end
$enddefinitions $end
#0
$dumpvars
0*"
0)"
0("
0'"
0&"
0%"
0$"
0#"
0""
0!"
0~
0}
0|
0{
0z
0y
0x
0w
0v
0u
0t
0s
0r
0q
0p
0o
0n
0m
0l
0k
0j
0i
0h
0g
0f
0e
0d
0c
0b
0a
0`
0_
0^
0]
0\
0[
0Z
0Y
0X
0W
0V
0U
0T
0S
0R
0Q
0P
0O
0N
0M
0L
0K
0J
0I
0H
0G
0F
0E
0D
0C
0B
0A
0@
0?
0>
0=
0<
0;
0:
09
08
07
06
05
b0 4
b0 3
02
b0 1
b0 0
b0 /
b0 .
bx -
0,
bx +
x*
b0 )
b0 (
b111111011 '
b110 &
0%
b111111011 $
b110 #
b0 "
0!
$end
#100000
1;
1E
1J
1O
1T
1Y
1^
1c
1h
1m
1r
1w
1|
1#"
1("
b11111111111111011 (
b11111111111111011 4
16
18
1=
1G
1L
1Q
1V
1[
1`
1e
1j
1o
1t
1y
1~
1%"
1*"
b11111111111111011 /
b11111111111111011 1
b110 +
b0 -
0*
b1 "
1%
1!
#200000
0!
#300000
b10 "
0%
1,
1!
#400000
0!
#500000
1@
0E
b11111111111110110 (
b11111111111110110 4
06
08
1B
0G
b1 )
b11111111111110110 /
b11111111111110110 1
b11 "
1!
#600000
0!
#700000
1M
1I
0J
1H
12
1D
1'"
0("
1C
1R
1W
1\
1a
1f
1k
1p
1u
1z
1!"
1&"
1?
1N
1S
1X
1]
1b
1g
1l
1q
1v
1{
b11111111111111100 3
1""
0E
0@
1O
1T
1Y
1^
1c
1h
1m
1r
1w
1|
b1111111111100010 (
b1111111111100010 4
1#"
0=
1G
0L
1<
1A
1K
1P
1U
1Z
1_
1d
1i
1n
1s
1x
1}
1$"
b100 "
b10 )
b11111111111101100 /
b11111111111101100 1
b1111111111110110 .
b1111111111110110 0
1!
#800000
0!
#900000
1J
0H
0D
0T
0R
1E
0N
0C
0?
0M
b1111111110111010 (
b1111111110111010 4
1O
b11111111111000000 3
0I
0B
1L
0Q
0A
0K
b11 )
b11111111111011000 /
b11111111111011000 1
b1111111111100010 .
b1111111111100010 0
b1111111111110110 -
b101 "
1!
#1000000
0!
#1100000
1Y
1R
1W
1N
b11111111111100000 3
1S
0E
0O
b1111111110010010 (
b1111111110010010 4
0T
0G
1Q
0V
b110 "
b1111111111100010 -
b100 )
b11111111110110000 /
b11111111110110000 1
1!
#1200000
0!
#1300000
0J
1T
b1111111101000010 (
b1111111101000010 4
0Y
0L
1V
0[
b101 )
b11111111101100000 /
b11111111101100000 1
b111 "
1!
#1400000
0!
#1500000
0T
0R
b11111111111000000 3
0N
1O
1Y
b1111111010100010 (
b1111111010100010 4
0^
0Q
1[
0`
b1000 "
b110 )
b11111111011000000 /
b11111111011000000 1
1!
#1600000
0!
#1700000
0Y
0W
b11111111110000000 3
0S
1T
1^
b1111110101100010 (
b1111110101100010 4
0c
0V
1`
0e
b111 )
b11111110110000000 /
b11111110110000000 1
b1001 "
1!
#1800000
0!
#1900000
0^
0\
b11111111100000000 3
0X
1Y
1c
b1111101011100010 (
b1111101011100010 4
0h
0[
1e
0j
b1010 "
b1000 )
b11111101100000000 /
b11111101100000000 1
1!
#2000000
0!
#2100000
0c
0a
b11111111000000000 3
0]
1^
1h
b1111010111100010 (
b1111010111100010 4
0m
0`
1j
0o
b1001 )
b11111011000000000 /
b11111011000000000 1
b1011 "
1!
#2200000
0!
#2300000
0h
0f
b11111110000000000 3
0b
1c
1m
b1110101111100010 (
b1110101111100010 4
0r
0e
1o
0t
b1100 "
b1010 )
b11110110000000000 /
b11110110000000000 1
1!
#2400000
0!
#2500000
0m
0k
b11111100000000000 3
0g
1h
1r
b1101011111100010 (
b1101011111100010 4
0w
0j
1t
0y
b1011 )
b11101100000000000 /
b11101100000000000 1
b1101 "
1!
#2600000
0!
#2700000
0r
0p
b11111000000000000 3
0l
1m
1w
b1010111111100010 (
b1010111111100010 4
0|
0o
1y
0~
b1110 "
b1100 )
b11011000000000000 /
b11011000000000000 1
1!
#2800000
0!
#2900000
0w
0u
b11110000000000000 3
0q
1r
1|
b101111111100010 (
b101111111100010 4
0#"
0t
1~
0%"
b1101 )
b10110000000000000 /
b10110000000000000 1
b1111 "
1!
#3000000
0!
#3100000
0|
0z
02
0v
b1100000000000000 3
0'"
1w
1#"
b11011111111100010 (
b11011111111100010 4
1("
0y
1%"
0*"
b10000 "
b1110 )
b1100000000000000 /
b1100000000000000 1
1!
#3200000
0!
#3300000
0#"
0!"
12
0{
b11000000000000000 3
1'"
1|
b111111111100010 (
b111111111100010 4
0("
0~
1*"
b1111 )
b11000000000000000 /
b11000000000000000 1
b10001 "
1!
#3400000
0!
#3500000
02
0'"
1("
0&"
b0 3
0""
b11111111111100010 (
b11111111111100010 4
1#"
0%"
b10010 "
b0 )
b10000000000000000 /
b10000000000000000 1
1!
#3600000
0!
#3700000
b1111111111100010 (
b1111111111100010 4
0("
0*"
b1 )
b0 /
b0 1
b10011 "
1!
#3800000
0!
#3900000
b10100 "
b10 )
1!
#4000000
0!
#4100000
b11 )
b10101 "
1!
#4200000
0!
#4300000
b10110 "
b100 )
1!
#4400000
0!
#4500000
b101 )
b10111 "
1!
#4600000
0!
#4700000
b11000 "
b110 )
1!
#4800000
0!
#4900000
b111 )
b11001 "
1!
#5000000
0!
#5100000
b11010 "
b1000 )
1!
#5200000
0!
#5300000
b1001 )
b11011 "
1!
#5400000
0!
#5500000
b11100 "
b1010 )
1!
#5600000
0!
#5700000
b1011 )
b11101 "
1!
#5800000
0!
#5900000
b11110 "
b1100 )
1!
#6000000
0!
#6100000
b1101 )
b11111 "
1!
#6200000
0!
#6300000
b100000 "
b1110 )
1!
#6400000
0!
#6500000
b1111 )
b100001 "
1!
#6600000
0!
#6700000
b100010 "
b0 )
1!
#6800000
0!
#6900000
b1 )
b100011 "
1!
#7000000
0!
#7100000
b100100 "
b10 )
1!
#7200000
0!
#7300000
b11 )
b100101 "
1!
#7400000
0!
#7500000
b100110 "
b100 )
1!
#7600000
0!
#7700000
b101 )
b100111 "
1!
#7800000
0!
#7900000
b101000 "
b110 )
1!
#8000000
0!
#8100000
b111 )
b101001 "
1!
#8200000
0!
#8300000
b101010 "
b1000 )
1!
#8400000
0!
#8500000
b1001 )
b101011 "
1!
#8600000
0!
#8700000
b101100 "
b1010 )
1!
#8800000
0!
#8900000
b1011 )
b101101 "
1!
#9000000
0!
#9100000
b101110 "
b1100 )
1!
#9200000
0!
#9300000
b1101 )
b101111 "
1!
#9400000
0!
#9500000
b110000 "
b1110 )
1!
#9600000
0!
#9700000
b1111 )
b110001 "
1!
#9800000
0!
#9900000
b110010 "
b0 )
1!
#10000000
0!
#10100000
b1 )
b110011 "
1!
#10200000
0!
#10300000
b110100 "
b10 )
1!
#10400000
0!
#10500000
b11 )
b110101 "
1!
#10600000
0!
#10700000
b110110 "
b100 )
1!
#10800000
0!
#10900000
b101 )
b110111 "
1!
#11000000
0!
#11100000
b111000 "
b110 )
1!
#11200000
0!
#11300000
b111 )
b111001 "
1!
#11400000
0!
#11500000
b111010 "
b1000 )
1!
#11600000
0!
#11700000
b1001 )
b111011 "
1!
#11800000
0!
#11900000
b111100 "
b1010 )
1!
#12000000
0!
#12100000
b1011 )
b111101 "
1!
#12200000
0!
#12300000
b111110 "
b1100 )
1!
#12400000
0!
#12500000
b1101 )
b111111 "
1!
#12600000
0!
#12700000
b1000000 "
b1110 )
1!
#12800000
0!
#12900000
b1111 )
b1000001 "
1!
#13000000
0!
#13100000
b1000010 "
b0 )
1!
#13200000
0!
#13300000
b1 )
b1000011 "
1!
#13400000
0!
#13500000
b1000100 "
b10 )
1!
#13600000
0!
#13700000
b11 )
b1000101 "
1!
#13800000
0!
#13900000
b1000110 "
b100 )
1!
#14000000
0!
#14100000
b101 )
b1000111 "
1!
#14200000
0!
#14300000
b1001000 "
b110 )
1!
#14400000
0!
#14500000
b111 )
b1001001 "
1!
#14600000
0!
#14700000
b1001010 "
b1000 )
1!
#14800000
0!
#14900000
b1001 )
b1001011 "
1!
#15000000
0!
#15100000
b1001100 "
b1010 )
1!
#15200000
0!
#15300000
b1011 )
b1001101 "
1!
#15400000
0!
#15500000
b1001110 "
b1100 )
1!
#15600000
0!
#15700000
b1101 )
b1001111 "
1!
#15800000
0!
#15900000
b1010000 "
b1110 )
1!
#16000000
0!
#16100000
b1111 )
b1010001 "
1!
#16200000
0!
#16300000
b1010010 "
b0 )
1!
#16400000
0!
#16500000
b1 )
b1010011 "
1!
#16600000
0!
#16700000
b1010100 "
b10 )
1!
#16800000
0!
#16900000
b11 )
b1010101 "
1!
#17000000
0!
#17100000
b1010110 "
b100 )
1!
#17200000
0!
#17300000
b101 )
b1010111 "
1!
#17400000
0!
#17500000
b1011000 "
b110 )
1!
#17600000
0!
#17700000
b111 )
b1011001 "
1!
#17800000
0!
#17900000
b1011010 "
b1000 )
1!
#18000000
0!
#18100000
b1001 )
b1011011 "
1!
#18200000
0!
#18300000
b1011100 "
b1010 )
1!
#18400000
0!
#18500000
b1011 )
b1011101 "
1!
#18600000
0!
#18700000
b1011110 "
b1100 )
1!
#18800000
0!
#18900000
b1101 )
b1011111 "
1!
#19000000
0!
#19100000
b1100000 "
b1110 )
1!
#19200000
0!
#19300000
b1111 )
b1100001 "
1!
#19400000
0!
#19500000
b1100010 "
b0 )
1!
#19600000
0!
#19700000
b1 )
b1100011 "
1!
#19800000
0!
#19900000
b1100100 "
b10 )
1!
#20000000
0!
#20100000
b11 )
b1100101 "
1!
#20200000
0!
#20300000
b1100110 "
b100 )
1!
#20400000
0!
#20500000
b101 )
b1100111 "
1!
#20600000
0!
#20700000
b1101000 "
b110 )
1!
#20800000
0!
#20900000
b111 )
b1101001 "
1!
#21000000
0!
#21100000
b1101010 "
b1000 )
1!
#21200000
0!
#21300000
b1001 )
b1101011 "
1!
#21400000
0!
#21500000
b1101100 "
b1010 )
1!
#21600000
0!
#21700000
b1011 )
b1101101 "
1!
#21800000
0!
#21900000
b1101110 "
b1100 )
1!
#22000000
0!
#22100000
b1101 )
b1101111 "
1!
#22200000
0!
#22300000
b1110000 "
b1110 )
1!
#22400000
0!
#22500000
b1111 )
b1110001 "
1!
#22600000
0!
#22700000
b1110010 "
b0 )
1!
#22800000
0!
#22900000
b1 )
b1110011 "
1!
#23000000
0!
#23100000
b1110100 "
b10 )
1!
#23200000
0!
#23300000
b11 )
b1110101 "
1!
#23400000
0!
#23500000
b1110110 "
b100 )
1!
#23600000
0!
#23700000
b101 )
b1110111 "
1!
#23800000
0!
#23900000
b1111000 "
b110 )
1!
#24000000
0!
#24100000
b111 )
b1111001 "
1!
#24200000
0!
#24300000
b1111010 "
b1000 )
1!
#24400000
0!
#24500000
b1001 )
b1111011 "
1!
#24600000
0!
#24700000
b1111100 "
b1010 )
1!
#24800000
0!
#24900000
b1011 )
b1111101 "
1!
#25000000
0!
#25100000
b1111110 "
b1100 )
1!
#25200000
0!
#25300000
b1101 )
b1111111 "
1!
#25400000
0!
#25500000
b10000000 "
b1110 )
1!
#25600000
0!
#25700000
b1111 )
b10000001 "
1!
#25800000
0!
#25900000
b10000010 "
b0 )
1!
#26000000
0!
#26100000
b1 )
b10000011 "
1!
#26200000
0!
#26300000
b10000100 "
b10 )
1!
#26400000
0!
#26500000
b11 )
b10000101 "
1!
#26600000
0!
#26700000
b10000110 "
b100 )
1!
#26800000
0!
#26900000
b101 )
b10000111 "
1!
#27000000
0!
#27100000
b10001000 "
b110 )
1!
#27200000
0!
#27300000
b111 )
b10001001 "
1!
#27400000
0!
#27500000
b10001010 "
b1000 )
1!
#27600000
0!
#27700000
b1001 )
b10001011 "
1!
#27800000
0!
#27900000
b10001100 "
b1010 )
1!
#28000000
0!
#28100000
b1011 )
b10001101 "
1!
#28200000
0!
#28300000
b10001110 "
b1100 )
1!
#28400000
0!
#28500000
b1101 )
b10001111 "
1!
#28600000
0!
#28700000
b10010000 "
b1110 )
1!
#28800000
0!
#28900000
b1111 )
b10010001 "
1!
#29000000
0!
#29100000
b10010010 "
b0 )
1!
#29200000
0!
#29300000
b1 )
b10010011 "
1!
#29400000
0!
#29500000
b10010100 "
b10 )
1!
#29600000
0!
#29700000
b11 )
b10010101 "
1!
#29800000
0!
#29900000
b10010110 "
b100 )
1!
#30000000
0!
#30100000
b101 )
b10010111 "
1!
#30200000
0!
#30300000
b10011000 "
b110 )
1!
#30400000
0!
#30500000
b111 )
b10011001 "
1!
#30600000
0!
#30700000
b10011010 "
b1000 )
1!
#30800000
0!
#30900000
b1001 )
b10011011 "
1!
#31000000
0!
#31100000
b10011100 "
b1010 )
1!
#31200000
0!
#31300000
b1011 )
b10011101 "
1!
#31400000
0!
#31500000
b10011110 "
b1100 )
1!
#31600000
0!
#31700000
b1101 )
b10011111 "
1!
#31800000
0!
#31900000
b10100000 "
b1110 )
1!
#32000000
0!
#32100000
b1111 )
b10100001 "
1!
#32200000
0!
#32300000
b10100010 "
b0 )
1!
#32400000
0!
#32500000
b1 )
b10100011 "
1!
#32600000
0!
#32700000
b10100100 "
b10 )
1!
#32800000
0!
#32900000
b11 )
b10100101 "
1!
#33000000
0!
#33100000
b10100110 "
b100 )
1!
#33200000
0!
#33300000
b101 )
b10100111 "
1!
#33400000
0!
#33500000
b10101000 "
b110 )
1!
#33600000
0!
#33700000
b111 )
b10101001 "
1!
#33800000
0!
#33900000
b10101010 "
b1000 )
1!
#34000000
0!
#34100000
b1001 )
b10101011 "
1!
#34200000
0!
#34300000
b10101100 "
b1010 )
1!
#34400000
0!
#34500000
b1011 )
b10101101 "
1!
#34600000
0!
#34700000
b10101110 "
b1100 )
1!
#34800000
0!
#34900000
b1101 )
b10101111 "
1!
#35000000
0!
#35100000
b10110000 "
b1110 )
1!
#35200000
0!
#35300000
b1111 )
b10110001 "
1!
#35400000
0!
#35500000
b10110010 "
b0 )
1!
#35600000
0!
#35700000
b1 )
b10110011 "
1!
#35800000
0!
#35900000
b10110100 "
b10 )
1!
#36000000
0!
#36100000
b11 )
b10110101 "
1!
#36200000
0!
#36300000
b10110110 "
b100 )
1!
#36400000
0!
#36500000
b101 )
b10110111 "
1!
#36600000
0!
#36700000
b10111000 "
b110 )
1!
#36800000
0!
#36900000
b111 )
b10111001 "
1!
#37000000
0!
#37100000
b10111010 "
b1000 )
1!
#37200000
0!
#37300000
b1001 )
b10111011 "
1!
#37400000
0!
#37500000
b10111100 "
b1010 )
1!
#37600000
0!
#37700000
b1011 )
b10111101 "
1!
#37800000
0!
#37900000
b10111110 "
b1100 )
1!
#38000000
0!
#38100000
b1101 )
b10111111 "
1!
#38200000
0!
#38300000
b11000000 "
b1110 )
1!
#38400000
0!
#38500000
b1111 )
b11000001 "
1!
#38600000
0!
#38700000
b11000010 "
b0 )
1!
#38800000
0!
#38900000
b1 )
b11000011 "
1!
#39000000
0!
#39100000
b11000100 "
b10 )
1!
#39200000
0!
#39300000
b11 )
b11000101 "
1!
#39400000
0!
#39500000
b11000110 "
b100 )
1!
#39600000
0!
#39700000
b101 )
b11000111 "
1!
#39800000
0!
#39900000
b11001000 "
b110 )
1!
#40000000
0!
#40100000
b111 )
b11001001 "
1!
#40200000
0!
#40300000
b11001010 "
b1000 )
1!
#40400000
0!
#40500000
b1001 )
b11001011 "
1!
#40600000
0!
#40700000
b11001100 "
b1010 )
1!
#40800000
0!
#40900000
b1011 )
b11001101 "
1!
#41000000
0!
#41100000
b11001110 "
b1100 )
1!
#41200000
0!
#41300000
b1101 )
b11001111 "
1!
#41400000
0!
#41500000
b11010000 "
b1110 )
1!
#41600000
0!
#41700000
b1111 )
b11010001 "
1!
#41800000
0!
#41900000
b11010010 "
b0 )
1!
#42000000
0!
#42100000
b1 )
b11010011 "
1!
#42200000
0!
#42300000
b11010100 "
b10 )
1!
#42400000
0!
#42500000
b11 )
b11010101 "
1!
#42600000
0!
#42700000
b11010110 "
b100 )
1!
#42800000
0!
#42900000
b101 )
b11010111 "
1!
#43000000
0!
#43100000
b11011000 "
b110 )
1!
#43200000
0!
#43300000
b111 )
b11011001 "
1!
#43400000
0!
#43500000
b11011010 "
b1000 )
1!
#43600000
0!
#43700000
b1001 )
b11011011 "
1!
#43800000
0!
#43900000
b11011100 "
b1010 )
1!
#44000000
0!
#44100000
b1011 )
b11011101 "
1!
#44200000
0!
#44300000
b11011110 "
b1100 )
1!
#44400000
0!
#44500000
b1101 )
b11011111 "
1!
#44600000
0!
#44700000
b11100000 "
b1110 )
1!
#44800000
0!
#44900000
b1111 )
b11100001 "
1!
#45000000
0!
#45100000
b11100010 "
b0 )
1!
#45200000
0!
#45300000
b1 )
b11100011 "
1!
#45400000
0!
#45500000
b11100100 "
b10 )
1!
#45600000
0!
#45700000
b11 )
b11100101 "
1!
#45800000
0!
#45900000
b11100110 "
b100 )
1!
#46000000
0!
#46100000
b101 )
b11100111 "
1!
#46200000
0!
#46300000
b11101000 "
b110 )
1!
#46400000
0!
#46500000
b111 )
b11101001 "
1!
#46600000
0!
#46700000
b11101010 "
b1000 )
1!
#46800000
0!
#46900000
b1001 )
b11101011 "
1!
#47000000
0!
#47100000
b11101100 "
b1010 )
1!
#47200000
0!
#47300000
b1011 )
b11101101 "
1!
#47400000
0!
#47500000
b11101110 "
b1100 )
1!
#47600000
0!
#47700000
b1101 )
b11101111 "
1!
#47800000
0!
#47900000
b11110000 "
b1110 )
1!
#48000000
0!
#48100000
b1111 )
b11110001 "
1!
#48200000
0!
#48300000
b11110010 "
b0 )
1!
#48400000
0!
#48500000
b1 )
b11110011 "
1!
#48600000
0!
#48700000
b11110100 "
b10 )
1!
#48800000
0!
#48900000
b11 )
b11110101 "
1!
#49000000
0!
#49100000
b11110110 "
b100 )
1!
#49200000
0!
#49300000
b101 )
b11110111 "
1!
#49400000
0!
#49500000
b11111000 "
b110 )
1!
#49600000
0!
#49700000
b111 )
b11111001 "
1!
#49800000
0!
#49900000
b11111010 "
b1000 )
1!
#50000000
0!
#50100000
b1001 )
b11111011 "
1!
#50200000
0!
#50300000
b11111100 "
b1010 )
1!
#50400000
0!
#50500000
b1011 )
b11111101 "
1!
#50600000
0!
#50700000
b11111110 "
b1100 )
1!
#50800000
0!
#50900000
b1101 )
b11111111 "
1!
#51000000
0!
#51100000
b0 "
b1110 )
1!
#51200000
0!
#51300000
b1111 )
b1 "
1%
1!
#51400000
0!
#51500000
b10 "
0%
b0 )
1!
#51600000
0!
#51700000
b1 )
b11 "
1!
#51800000
0!
#51900000
b100 "
b10 )
1!
#52000000
0!
#52100000
b11 )
b101 "
1!
#52200000
0!
#52300000
b110 "
b100 )
1!
#52400000
0!
#52500000
b101 )
b111 "
1!
#52600000
0!
#52700000
b1000 "
b110 )
1!
#52800000
0!
#52900000
b111 )
b1001 "
1!
#53000000
0!
#53100000
b1010 "
b1000 )
1!
#53200000
0!
#53300000
b1001 )
b1011 "
1!
#53400000
0!
#53500000
b1100 "
b1010 )
1!
#53600000
0!
#53700000
b1011 )
b1101 "
1!
#53800000
0!
#53900000
b1110 "
b1100 )
1!
#54000000
0!
#54100000
b1101 )
b1111 "
1!
#54200000
0!
#54300000
b10000 "
b1110 )
1!
#54400000
0!
#54500000
b1111 )
b10001 "
1!
#54600000
0!
#54700000
b10010 "
b0 )
1!
#54800000
0!
#54900000
b1 )
b10011 "
1!
#55000000
0!
#55100000
b10100 "
b10 )
1!
#55200000
0!
#55300000
b11 )
b10101 "
1!
#55400000
0!
#55500000
b10110 "
b100 )
1!
#55600000
0!
#55700000
b101 )
b10111 "
1!
#55800000
0!
#55900000
b11000 "
b110 )
1!
#56000000
0!
#56100000
b111 )
b11001 "
1!
#56200000
0!
#56300000
b11010 "
b1000 )
1!
#56400000
0!
#56500000
b1001 )
b11011 "
1!
#56600000
0!
#56700000
b11100 "
b1010 )
1!
#56800000
0!
#56900000
b1011 )
b11101 "
1!
#57000000
0!
#57100000
b11110 "
b1100 )
1!
#57200000
0!
#57300000
b1101 )
b11111 "
1!
#57400000
0!
#57500000
b100000 "
b1110 )
1!
#57600000
0!
#57700000
b1111 )
b100001 "
1!
#57800000
0!
#57900000
b100010 "
b0 )
1!
#58000000
0!
#58100000
b1 )
b100011 "
1!
#58200000
0!
#58300000
b100100 "
b10 )
1!
#58400000
0!
#58500000
b11 )
b100101 "
1!
#58600000
0!
#58700000
b100110 "
b100 )
1!
#58800000
0!
#58900000
b101 )
b100111 "
1!
#59000000
0!
#59100000
b101000 "
b110 )
1!
#59200000
0!
#59300000
b111 )
b101001 "
1!
#59400000
0!
#59500000
b101010 "
b1000 )
1!
#59600000
0!
#59700000
b1001 )
b101011 "
1!
#59800000
0!
#59900000
b101100 "
b1010 )
1!
#60000000
0!
#60100000
b1011 )
b101101 "
1!
#60200000
0!
#60300000
b101110 "
b1100 )
1!
#60400000
0!
#60500000
b1101 )
b101111 "
1!
#60600000
0!
#60700000
b110000 "
b1110 )
1!
#60800000
0!
#60900000
b1111 )
b110001 "
1!
#61000000
0!
#61100000
b110010 "
b0 )
1!
#61200000
0!
#61300000
b1 )
b110011 "
1!
#61400000
0!
#61500000
b110100 "
b10 )
1!
#61600000
0!
#61700000
b11 )
b110101 "
1!
#61800000
0!
#61900000
b110110 "
b100 )
1!
#62000000
0!
#62100000
b101 )
b110111 "
1!
#62200000
0!
#62300000
b111000 "
b110 )
1!
#62400000
0!
#62500000
b111 )
b111001 "
1!
#62600000
0!
#62700000
b111010 "
b1000 )
1!
#62800000
0!
#62900000
b1001 )
b111011 "
1!
#63000000
0!
#63100000
b111100 "
b1010 )
1!
#63200000
0!
#63300000
b1011 )
b111101 "
1!
#63400000
0!
#63500000
b111110 "
b1100 )
1!
#63600000
0!
#63700000
b1101 )
b111111 "
1!
#63800000
0!
#63900000
b1000000 "
b1110 )
1!
#64000000
0!
#64100000
b1111 )
b1000001 "
1!
#64200000
0!
#64300000
b1000010 "
b0 )
1!
#64400000
0!
#64500000
b1 )
b1000011 "
1!
#64600000
0!
#64700000
b1000100 "
b10 )
1!
#64800000
0!
#64900000
b11 )
b1000101 "
1!
#65000000
0!
#65100000
b1000110 "
b100 )
1!
#65200000
0!
#65300000
b101 )
b1000111 "
1!
#65400000
0!
#65500000
b1001000 "
b110 )
1!
#65600000
0!
#65700000
b111 )
b1001001 "
1!
#65800000
0!
#65900000
b1001010 "
b1000 )
1!
#66000000
0!
#66100000
b1001 )
b1001011 "
1!
#66200000
0!
#66300000
b1001100 "
b1010 )
1!
#66400000
0!
#66500000
b1011 )
b1001101 "
1!
#66600000
0!
#66700000
b1001110 "
b1100 )
1!
#66800000
0!
#66900000
b1101 )
b1001111 "
1!
#67000000
0!
#67100000
b1010000 "
b1110 )
1!
#67200000
0!
#67300000
b1111 )
b1010001 "
1!
#67400000
0!
#67500000
b1010010 "
b0 )
1!
#67600000
0!
#67700000
b1 )
b1010011 "
1!
#67800000
0!
#67900000
b1010100 "
b10 )
1!
#68000000
0!
#68100000
b11 )
b1010101 "
1!
#68200000
0!
#68300000
b1010110 "
b100 )
1!
#68400000
0!
#68500000
b101 )
b1010111 "
1!
#68600000
0!
#68700000
b1011000 "
b110 )
1!
#68800000
0!
#68900000
b111 )
b1011001 "
1!
#69000000
0!
#69100000
b1011010 "
b1000 )
1!
#69200000
0!
#69300000
b1001 )
b1011011 "
1!
#69400000
0!
#69500000
b1011100 "
b1010 )
1!
#69600000
0!
#69700000
b1011 )
b1011101 "
1!
#69800000
0!
#69900000
b1011110 "
b1100 )
1!
#70000000
0!
#70100000
b1101 )
b1011111 "
1!
#70200000
0!
#70300000
b1100000 "
b1110 )
1!
#70400000
0!
#70500000
b1111 )
b1100001 "
1!
#70600000
0!
#70700000
b1100010 "
b0 )
1!
#70800000
0!
#70900000
b1 )
b1100011 "
1!
#71000000
0!
#71100000
b1100100 "
b10 )
1!
#71200000
0!
#71300000
b11 )
b1100101 "
1!
#71400000
0!
#71500000
b1100110 "
b100 )
1!
#71600000
0!
#71700000
b101 )
b1100111 "
1!
#71800000
0!
#71900000
b1101000 "
b110 )
1!
#72000000
0!
#72100000
b111 )
b1101001 "
1!
#72200000
0!
#72300000
b1101010 "
b1000 )
1!
#72400000
0!
#72500000
b1001 )
b1101011 "
1!
#72600000
0!
#72700000
b1101100 "
b1010 )
1!
#72800000
0!
#72900000
b1011 )
b1101101 "
1!
#73000000
0!
#73100000
b1101110 "
b1100 )
1!
