sim/multsim/mult_tb.vcd
$date
	Sun Jun 12 10:54:16 2022
$end
$version
	Icarus Verilog
$end
$timescale
	10ns
$end
$scope module tb_mult $end
$var wire 8 ! data_0 [7:0] $end
$var wire 8 " data_1 [7:0] $end
$var wire 16 # out [15:0] $end
$var reg 1 $ clk $end
$var reg 8 % count [7:0] $end
$var reg 1 & start $end
$scope module Bit_mult $end
$var wire 1 $ clk $end
$var wire 8 ' input_0 [7:0] $end
$var wire 8 ( input_1 [7:0] $end
$var wire 1 & start $end
$var wire 16 ) w_p [15:0] $end
$var wire 16 * w_t [15:0] $end
$var wire 16 + w_o [15:0] $end
$var reg 5 , count [4:0] $end
$var reg 1 - data_valid $end
$var reg 16 . input_0_exp [15:0] $end
$var reg 16 / out [15:0] $end
$var reg 16 0 p [15:0] $end
$var reg 2 1 state [1:0] $end
$var reg 16 2 t [15:0] $end
$scope module Bit_16_adder $end
$var wire 16 3 input1 [15:0] $end
$var wire 16 4 input2 [15:0] $end
$var wire 1 5 carry_out $end
$var wire 16 6 carry [15:0] $end
$var wire 16 7 answer [15:0] $end
$scope begin generate_N_bit_Adder[0] $end
$scope begin genblk2 $end
$scope module f $end
$var wire 1 8 c $end
$var wire 1 9 s $end
$var wire 1 : x $end
$var wire 1 ; y $end
$upscope $end
$upscope $end
$upscope $end
$scope begin generate_N_bit_Adder[1] $end
$scope begin genblk3 $end
$scope module f $end
$var wire 1 < c_in $end
$var wire 1 = c_out $end
$var wire 1 > s $end
$var wire 1 ? x $end
$var wire 1 @ y $end
$upscope $end
$upscope $end
$upscope $end
$scope begin generate_N_bit_Adder[2] $end
$scope begin genblk3 $end
$scope module f $end
$var wire 1 A c_in $end
$var wire 1 B c_out $end
$var wire 1 C s $end
$var wire 1 D x $end
$var wire 1 E y $end
$upscope $end
$upscope $end
$upscope $end
$scope begin generate_N_bit_Adder[3] $end
$scope begin genblk3 $end
$scope module f $end
$var wire 1 F c_in $end
$var wire 1 G c_out $end
$var wire 1 H s $end
$var wire 1 I x $end
$var wire 1 J y $end
$upscope $end
$upscope $end
$upscope $end
$scope begin generate_N_bit_Adder[4] $end
$scope begin genblk3 $end
$scope module f $end
$var wire 1 K c_in $end
$var wire 1 L c_out $end
$var wire 1 M s $end
$var wire 1 N x $end
$var wire 1 O y $end
$upscope $end
$upscope $end
$upscope $end
$scope begin generate_N_bit_Adder[5] $end
$scope begin genblk3 $end
$scope module f $end
$var wire 1 P c_in $end
$var wire 1 Q c_out $end
$var wire 1 R s $end
$var wire 1 S x $end
$var wire 1 T y $end
$upscope $end
$upscope $end
$upscope $end
$scope begin generate_N_bit_Adder[6] $end
$scope begin genblk3 $end
$scope module f $end
$var wire 1 U c_in $end
$var wire 1 V c_out $end
$var wire 1 W s $end
$var wire 1 X x $end
$var wire 1 Y y $end
$upscope $end
$upscope $end
$upscope $end
$scope begin generate_N_bit_Adder[7] $end
$scope begin genblk3 $end
$scope module f $end
$var wire 1 Z c_in $end
$var wire 1 [ c_out $end
$var wire 1 \ s $end
$var wire 1 ] x $end
$var wire 1 ^ y $end
$upscope $end
$upscope $end
$upscope $end
$scope begin generate_N_bit_Adder[8] $end
$scope begin genblk3 $end
$scope module f $end
$var wire 1 _ c_in $end
$var wire 1 ` c_out $end
$var wire 1 a s $end
$var wire 1 b x $end
$var wire 1 c y $end
$upscope $end
$upscope $end
$upscope $end
$scope begin generate_N_bit_Adder[9] $end
$scope begin genblk3 $end
$scope module f $end
$var wire 1 d c_in $end
$var wire 1 e c_out $end
$var wire 1 f s $end
$var wire 1 g x $end
$var wire 1 h y $end
$upscope $end
$upscope $end
$upscope $end
$scope begin generate_N_bit_Adder[10] $end
$scope begin genblk3 $end
$scope module f $end
$var wire 1 i c_in $end
$var wire 1 j c_out $end
$var wire 1 k s $end
$var wire 1 l x $end
$var wire 1 m y $end
$upscope $end
$upscope $end
$upscope $end
$scope begin generate_N_bit_Adder[11] $end
$scope begin genblk3 $end
$scope module f $end
$var wire 1 n c_in $end
$var wire 1 o c_out $end
$var wire 1 p s $end
$var wire 1 q x $end
$var wire 1 r y $end
$upscope $end
$upscope $end
$upscope $end
$scope begin generate_N_bit_Adder[12] $end
$scope begin genblk3 $end
$scope module f $end
$var wire 1 s c_in $end
$var wire 1 t c_out $end
$var wire 1 u s $end
$var wire 1 v x $end
$var wire 1 w y $end
$upscope $end
$upscope $end
$upscope $end
$scope begin generate_N_bit_Adder[13] $end
$scope begin genblk3 $end
$scope module f $end
$var wire 1 x c_in $end
$var wire 1 y c_out $end
$var wire 1 z s $end
$var wire 1 { x $end
$var wire 1 | y $end
$upscope $end
$upscope $end
$upscope $end
$scope begin generate_N_bit_Adder[14] $end
$scope begin genblk3 $end
$scope module f $end
$var wire 1 } c_in $end
$var wire 1 ~ c_out $end
$var wire 1 !" s $end
$var wire 1 "" x $end
$var wire 1 #" y $end
$upscope $end
$upscope $end
$upscope $end
$scope begin generate_N_bit_Adder[15] $end
$scope begin genblk3 $end
$scope module f $end
$var wire 1 $" c_in $end
$var wire 1 %" c_out $end
$var wire 1 &" s $end
$var wire 1 '" x $end
$var wire 1 (" y $end
$upscope $end
$upscope $end
$upscope $end
$upscope $end
$upscope $end
$upscope $end
$enddefinitions $end
#0
$dumpvars
0("
0'"
0&"
0%"
0$"
0#"
0""
0!"
0~
0}
0|
0{
0z
0y
0x
0w
0v
0u
0t
0s
0r
0q
0p
0o
0n
0m
0l
0k
0j
0i
0h
0g
0f
0e
0d
0c
0b
0a
0`
0_
0^
0]
0\
0[
0Z
0Y
0X
0W
0V
0U
0T
0S
0R
0Q
0P
0O
0N
0M
0L
0K
0J
0I
0H
0G
0F
0E
0D
0C
0B
0A
0@
0?
0>
0=
0<
0;
0:
09
08
b0 7
b0 6
05
b0 4
b0 3
b0 2
b0 1
b0 0
bx /
bx .
0-
b0 ,
b0 +
b0 *
b0 )
b11111011 (
b110 '
0&
b0 %
0$
bx #
b11111011 "
b110 !
$end
#10
b1 %
1&
1$
#20
0$
#30
1>
1H
1M
1R
1W
1\
1a
1f
1k
1p
1u
1z
1!"
1&"
b1111111111111011 +
b1111111111111011 7
19
1;
1@
1J
1O
1T
1Y
1^
1c
1h
1m
1r
1w
1|
1#"
1("
b10 %
0&
b1 1
b1111111111111011 *
b1111111111111011 2
b1111111111111011 4
b110 .
1$
#40
0$
#50
1C
0H
b1111111111110110 +
b1111111111110110 7
09
0;
1E
0J
b1 ,
b1111111111110110 *
b1111111111110110 2
b1111111111110110 4
b11 %
1$
#60
0$
#70
1P
1L
0M
1K
1G
1F
1U
1Z
1_
1d
1i
1n
1s
1x
1}
1$"
15
1B
1Q
1V
1[
1`
1e
1j
1o
1t
1y
1~
b1111111111111100 6
1%"
0H
0C
1R
1W
1\
1a
1f
1k
1p
1u
1z
1!"
b1111111111100010 +
b1111111111100010 7
1&"
0@
1J
0O
1?
1D
1N
1S
1X
1]
1b
1g
1l
1q
1v
1{
1""
1'"
b100 %
b10 ,
b1111111111101100 *
b1111111111101100 2
b1111111111101100 4
b1111111111110110 )
b1111111111110110 0
b1111111111110110 3
1$
#80
0$
#90
1M
0K
0G
0W
0U
1H
0Q
0F
0B
0P
b1111111110111010 +
b1111111110111010 7
1R
b1111111111000000 6
0L
0E
1O
0T
0D
0N
b11 ,
b1111111111011000 *
b1111111111011000 2
b1111111111011000 4
b1111111111100010 )
b1111111111100010 0
b1111111111100010 3
b101 %
1$
#100
0$
#110
1\
1U
1Z
1Q
b1111111111100000 6
1V
0H
0R
b1111111110010010 +
b1111111110010010 7
0W
0J
1T
0Y
b110 %
b100 ,
b1111111110110000 *
b1111111110110000 2
b1111111110110000 4
1$
#120
0$
#130
0M
1W
b1111111101000010 +
b1111111101000010 7
0\
0O
1Y
0^
b101 ,
b1111111101100000 *
b1111111101100000 2
b1111111101100000 4
b111 %
1$
#140
0$
#150
0W
0U
b1111111111000000 6
0Q
1R
1\
b1111111010100010 +
b1111111010100010 7
0a
0T
1^
0c
b1000 %
b110 ,
b1111111011000000 *
b1111111011000000 2
b1111111011000000 4
1$
#160
0$
#170
0\
0Z
b1111111110000000 6
0V
1W
1a
b1111110101100010 +
b1111110101100010 7
0f
0Y
1c
0h
b111 ,
b1111110110000000 *
b1111110110000000 2
b1111110110000000 4
b1001 %
1$
#180
0$
#190
0a
0_
b1111111100000000 6
0[
1\
1f
b1111101011100010 +
b1111101011100010 7
0k
0^
1h
0m
b1010 %
b1000 ,
b1111101100000000 *
b1111101100000000 2
b1111101100000000 4
1$
#200
0$
#210
0f
0d
b1111111000000000 6
0`
1a
1k
b1111010111100010 +
b1111010111100010 7
0p
0c
1m
0r
b1001 ,
b1111011000000000 *
b1111011000000000 2
b1111011000000000 4
b1011 %
1$
#220
0$
#230
0k
0i
b1111110000000000 6
0e
1f
1p
b1110101111100010 +
b1110101111100010 7
0u
0h
1r
0w
b1100 %
b1010 ,
b1110110000000000 *
b1110110000000000 2
b1110110000000000 4
1$
#240
0$
#250
0p
0n
b1111100000000000 6
0j
1k
1u
b1101011111100010 +
b1101011111100010 7
0z
0m
1w
0|
b1011 ,
b1101100000000000 *
b1101100000000000 2
b1101100000000000 4
b1101 %
1$
#260
0$
#270
0u
0s
b1111000000000000 6
0o
1p
1z
b1010111111100010 +
b1010111111100010 7
0!"
0r
1|
0#"
b1110 %
b1100 ,
b1011000000000000 *
b1011000000000000 2
b1011000000000000 4
1$
#280
0$
#290
0z
0x
b1110000000000000 6
0t
1u
1!"
b101111111100010 +
b101111111100010 7
0&"
0w
1#"
0("
b1101 ,
b110000000000000 *
b110000000000000 2
b110000000000000 4
b1111 %
1$
#300
0$
#310
0!"
0}
b1100000000000000 6
0y
1z
b1011111111100010 +
b1011111111100010 7
1&"
0|
1("
b10000 %
b1110 ,
b1100000000000000 *
b1100000000000000 2
b1100000000000000 4
1$
#320
0$
#330
0&"
0$"
b1000000000000000 6
0~
b111111111100010 +
b111111111100010 7
1!"
0#"
b1111 ,
b1000000000000000 *
b1000000000000000 2
b1000000000000000 4
b10001 %
1$
#340
0$
#350
05
b0 6
0%"
b1111111111100010 +
b1111111111100010 7
1&"
0("
b10010 %
b10000 ,
b0 *
b0 2
b0 4
1$
#360
0$
#370
b10001 ,
b10 1
b10011 %
1$
#380
0$
#390
b10100 %
b0 1
1-
b0 ,
b1111111111100010 #
b1111111111100010 /
1$
#400
0$
#410
0-
b10101 %
1$
#420
0$
#430
b10110 %
1$
#440
0$
#450
b10111 %
1$
#460
0$
#470
b11000 %
1$
#480
0$
#490
b11001 %
1$
#500
0$
#510
b11010 %
1$
#520
0$
#530
b11011 %
1$
#540
0$
#550
b11100 %
1$
#560
0$
#570
b11101 %
1$
#580
0$
#590
b11110 %
1$
#600
0$
#610
b11111 %
1$
#620
0$
#630
b100000 %
1$
#640
0$
#650
b100001 %
1$
#660
0$
#670
b100010 %
1$
#680
0$
#690
b100011 %
1$
#700
0$
#710
b100100 %
1$
#720
0$
#730
b100101 %
1$
#740
0$
#750
b100110 %
1$
#760
0$
#770
b100111 %
1$
#780
0$
#790
b101000 %
1$
#800
0$
#810
b101001 %
1$
#820
0$
#830
b101010 %
1$
#840
0$
#850
b101011 %
1$
#860
0$
#870
b101100 %
1$
#880
0$
#890
b101101 %
1$
#900
0$
#910
b101110 %
1$
#920
0$
#930
b101111 %
1$
#940
0$
#950
b110000 %
1$
#960
0$
#970
b110001 %
1$
#980
0$
#990
b110010 %
1$
#1000
0$
#1010
b110011 %
1$
#1020
0$
#1030
b110100 %
1$
#1040
0$
#1050
b110101 %
1$
#1060
0$
#1070
b110110 %
1$
#1080
0$
#1090
b110111 %
1$
#1100
0$
#1110
b111000 %
1$
#1120
0$
#1130
b111001 %
1$
#1140
0$
#1150
b111010 %
1$
#1160
0$
#1170
b111011 %
1$
#1180
0$
#1190
b111100 %
1$
#1200
0$
#1210
b111101 %
1$
#1220
0$
#1230
b111110 %
1$
#1240
0$
#1250
b111111 %
1$
#1260
0$
#1270
b1000000 %
1$
#1280
0$
#1290
b1000001 %
1$
#1300
0$
#1310
b1000010 %
1$
#1320
0$
#1330
b1000011 %
1$
#1340
0$
#1350
b1000100 %
1$
#1360
0$
#1370
b1000101 %
1$
#1380
0$
#1390
b1000110 %
1$
#1400
0$
#1410
b1000111 %
1$
#1420
0$
#1430
b1001000 %
1$
#1440
0$
#1450
b1001001 %
1$
#1460
0$
#1470
b1001010 %
1$
#1480
0$
#1490
b1001011 %
1$
#1500
0$
#1510
b1001100 %
1$
#1520
0$
#1530
b1001101 %
1$
#1540
0$
#1550
b1001110 %
1$
#1560
0$
#1570
b1001111 %
1$
#1580
0$
#1590
b1010000 %
1$
#1600
0$
#1610
b1010001 %
1$
#1620
0$
#1630
b1010010 %
1$
#1640
0$
#1650
b1010011 %
1$
#1660
0$
#1670
b1010100 %
1$
#1680
0$
#1690
b1010101 %
1$
#1700
0$
#1710
b1010110 %
1$
#1720
0$
#1730
b1010111 %
1$
#1740
0$
#1750
b1011000 %
1$
#1760
0$
#1770
b1011001 %
1$
#1780
0$
#1790
b1011010 %
1$
#1800
0$
#1810
b1011011 %
1$
#1820
0$
#1830
b1011100 %
1$
#1840
0$
#1850
b1011101 %
1$
#1860
0$
#1870
b1011110 %
1$
#1880
0$
#1890
b1011111 %
1$
#1900
0$
#1910
b1100000 %
1$
#1920
0$
#1930
b1100001 %
1$
#1940
0$
#1950
b1100010 %
1$
#1960
0$
#1970
b1100011 %
1$
#1980
0$
#1990
b1100100 %
1$
#2000
0$
#2010
b1100101 %
1$
#2020
0$
#2030
b1100110 %
1$
#2040
0$
#2050
b1100111 %
1$
#2060
0$
#2070
b1101000 %
1$
#2080
0$
#2090
b1101001 %
1$
#2100
0$
#2110
b1101010 %
1$
#2120
0$
#2130
b1101011 %
1$
#2140
0$
#2150
b1101100 %
1$
#2160
0$
#2170
b1101101 %
1$
#2180
0$
#2190
b1101110 %
1$
#2200
0$
#2210
b1101111 %
1$
#2220
0$
#2230
b1110000 %
1$
#2240
0$
#2250
b1110001 %
1$
#2260
0$
#2270
b1110010 %
1$
#2280
0$
#2290
b1110011 %
1$
#2300
0$
#2310
b1110100 %
1$
#2320
0$
#2330
b1110101 %
1$
#2340
0$
#2350
b1110110 %
1$
#2360
0$
#2370
b1110111 %
1$
#2380
0$
#2390
b1111000 %
1$
#2400
0$
#2410
b1111001 %
1$
#2420
0$
#2430
b1111010 %
1$
#2440
0$
#2450
b1111011 %
1$
#2460
0$
#2470
b1111100 %
1$
#2480
0$
#2490
b1111101 %
1$
#2500
0$
#2510
b1111110 %
1$
#2520
0$
#2530
b1111111 %
1$
#2540
0$
#2550
b10000000 %
1$
#2560
0$
#2570
b10000001 %
1$
#2580
0$
#2590
b10000010 %
1$
#2600
0$
#2610
b10000011 %
1$
#2620
0$
#2630
b10000100 %
1$
#2640
0$
#2650
b10000101 %
1$
#2660
0$
#2670
b10000110 %
1$
#2680
0$
#2690
b10000111 %
1$
#2700
0$
#2710
b10001000 %
1$
#2720
0$
#2730
b10001001 %
1$
#2740
0$
#2750
b10001010 %
1$
#2760
0$
#2770
b10001011 %
1$
#2780
0$
#2790
b10001100 %
1$
#2800
0$
#2810
b10001101 %
1$
#2820
0$
#2830
b10001110 %
1$
#2840
0$
#2850
b10001111 %
1$
#2860
0$
#2870
b10010000 %
1$
#2880
0$
#2890
b10010001 %
1$
#2900
0$
#2910
b10010010 %
1$
#2920
0$
#2930
b10010011 %
1$
#2940
0$
#2950
b10010100 %
1$
#2960
0$
#2970
b10010101 %
1$
#2980
0$
#2990
b10010110 %
1$
#3000
0$
#3010
b10010111 %
1$
#3020
0$
#3030
b10011000 %
1$
#3040
0$
#3050
b10011001 %
1$
#3060
0$
#3070
b10011010 %
1$
#3080
0$
#3090
b10011011 %
1$
#3100
0$
#3110
b10011100 %
1$
#3120
0$
#3130
b10011101 %
1$
#3140
0$
#3150
b10011110 %
1$
#3160
0$
#3170
b10011111 %
1$
#3180
0$
#3190
b10100000 %
1$
#3200
0$
#3210
b10100001 %
1$
#3220
0$
#3230
b10100010 %
1$
#3240
0$
#3250
b10100011 %
1$
#3260
0$
#3270
b10100100 %
1$
#3280
0$
#3290
b10100101 %
1$
#3300
0$
#3310
b10100110 %
1$
#3320
0$
#3330
b10100111 %
1$
#3340
0$
#3350
b10101000 %
1$
#3360
0$
#3370
b10101001 %
1$
#3380
0$
#3390
b10101010 %
1$
#3400
0$
#3410
b10101011 %
1$
#3420
0$
#3430
b10101100 %
1$
#3440
0$
#3450
b10101101 %
1$
#3460
0$
#3470
b10101110 %
1$
#3480
0$
#3490
b10101111 %
1$
#3500
0$
#3510
b10110000 %
1$
#3520
0$
#3530
b10110001 %
1$
#3540
0$
#3550
b10110010 %
1$
#3560
0$
#3570
b10110011 %
1$
#3580
0$
#3590
b10110100 %
1$
#3600
0$
#3610
b10110101 %
1$
#3620
0$
#3630
b10110110 %
1$
#3640
0$
#3650
b10110111 %
1$
#3660
0$
#3670
b10111000 %
1$
#3680
0$
#3690
b10111001 %
1$
#3700
0$
#3710
b10111010 %
1$
#3720
0$
#3730
b10111011 %
1$
#3740
0$
#3750
b10111100 %
1$
#3760
0$
#3770
b10111101 %
1$
#3780
0$
#3790
b10111110 %
1$
#3800
0$
#3810
b10111111 %
1$
#3820
0$
#3830
b11000000 %
1$
#3840
0$
#3850
b11000001 %
1$
#3860
0$
#3870
b11000010 %
1$
#3880
0$
#3890
b11000011 %
1$
#3900
0$
#3910
b11000100 %
1$
#3920
0$
#3930
b11000101 %
1$
#3940
0$
#3950
b11000110 %
1$
#3960
0$
#3970
b11000111 %
1$
#3980
0$
#3990
b11001000 %
1$
#4000
0$
#4010
b11001001 %
1$
#4020
0$
#4030
b11001010 %
1$
#4040
0$
#4050
b11001011 %
1$
#4060
0$
#4070
b11001100 %
1$
#4080
0$
#4090
b11001101 %
1$
#4100
0$
#4110
b11001110 %
1$
#4120
0$
#4130
b11001111 %
1$
#4140
0$
#4150
b11010000 %
1$
#4160
0$
#4170
b11010001 %
1$
#4180
0$
#4190
b11010010 %
1$
#4200
0$
#4210
b11010011 %
1$
#4220
0$
#4230
b11010100 %
1$
#4240
0$
#4250
b11010101 %
1$
#4260
0$
#4270
b11010110 %
1$
#4280
0$
#4290
b11010111 %
1$
#4300
0$
#4310
b11011000 %
1$
#4320
0$
#4330
b11011001 %
1$
#4340
0$
#4350
b11011010 %
1$
#4360
0$
#4370
b11011011 %
1$
#4380
0$
#4390
b11011100 %
1$
#4400
0$
#4410
b11011101 %
1$
#4420
0$
#4430
b11011110 %
1$
#4440
0$
#4450
b11011111 %
1$
#4460
0$
#4470
b11100000 %
1$
#4480
0$
#4490
b11100001 %
1$
#4500
0$
#4510
b11100010 %
1$
#4520
0$
#4530
b11100011 %
1$
#4540
0$
#4550
b11100100 %
1$
#4560
0$
#4570
b11100101 %
1$
#4580
0$
#4590
b11100110 %
1$
#4600
0$
#4610
b11100111 %
1$
#4620
0$
#4630
b11101000 %
1$
#4640
0$
#4650
b11101001 %
1$
#4660
0$
#4670
b11101010 %
1$
#4680
0$
#4690
b11101011 %
1$
#4700
0$
#4710
b11101100 %
1$
#4720
0$
#4730
b11101101 %
1$
#4740
0$
#4750
b11101110 %
1$
#4760
0$
#4770
b11101111 %
1$
#4780
0$
#4790
b11110000 %
1$
#4800
0$
#4810
b11110001 %
1$
#4820
0$
#4830
b11110010 %
1$
#4840
0$
#4850
b11110011 %
1$
#4860
0$
#4870
b11110100 %
1$
#4880
0$
#4890
b11110101 %
1$
#4900
0$
#4910
b11110110 %
1$
#4920
0$
#4930
b11110111 %
1$
#4940
0$
#4950
b11111000 %
1$
#4960
0$
#4970
b11111001 %
1$
#4980
0$
#4990
b11111010 %
1$
#5000
0$
#5010
b11111011 %
1$
#5020
0$
#5030
b11111100 %
1$
#5040
0$
#5050
b11111101 %
1$
#5060
0$
#5070
b11111110 %
1$
#5080
0$
#5090
b11111111 %
1$
#5100
0$
#5110
b0 %
1$
#5120
0$
#5130
b1 %
1&
1$
#5140
0$
#5150
1H
1M
b1111111111111011 +
b1111111111111011 7
19
1;
1@
1J
1O
1T
1Y
1^
1c
1h
1m
1r
1w
1|
1#"
1("
0?
0S
0X
0]
0b
0g
0l
0q
0v
0{
0""
0'"
b10 %
0&
b1 1
b1111111111111011 *
b1111111111111011 2
b1111111111111011 4
b0 )
b0 0
b0 3
1$
#5160
0$
#5170
1C
0H
b1111111111110110 +
b1111111111110110 7
09
0;
1E
0J
b1 ,
b1111111111110110 *
b1111111111110110 2
b1111111111110110 4
b11 %
1$
#5180
0$
#5190
1P
1L
0M
1K
1G
1F
1U
1Z
1_
1d
1i
1n
1s
1x
1}
1$"
15
1B
1Q
1V
1[
1`
1e
1j
1o
1t
1y
1~
b1111111111111100 6
1%"
0H
0C
1R
1W
1\
1a
1f
1k
1p
1u
1z
1!"
b1111111111100010 +
b1111111111100010 7
1&"
0@
1J
0O
1?
1D
1N
1S
1X
1]
1b
1g
1l
1q
1v
1{
1""
1'"
b100 %
b10 ,
b1111111111101100 *
b1111111111101100 2
b1111111111101100 4
b1111111111110110 )
b1111111111110110 0
b1111111111110110 3
1$
#5200
0$
#5210
1M
0K
0G
0W
0U
1H
0Q
0F
0B
0P
b1111111110111010 +
b1111111110111010 7
1R
b1111111111000000 6
0L
0E
1O
0T
0D
0N
b11 ,
b1111111111011000 *
b1111111111011000 2
b1111111111011000 4
b1111111111100010 )
b1111111111100010 0
b1111111111100010 3
b101 %
1$
#5220
0$
#5230
1\
1U
1Z
1Q
b1111111111100000 6
1V
0H
0R
b1111111110010010 +
b1111111110010010 7
0W
0J
1T
0Y
b110 %
b100 ,
b1111111110110000 *
b1111111110110000 2
b1111111110110000 4
1$
#5240
0$
#5250
0M
1W
b1111111101000010 +
b1111111101000010 7
0\
0O
1Y
0^
b101 ,
b1111111101100000 *
b1111111101100000 2
b1111111101100000 4
b111 %
1$
#5260
0$
#5270
0W
0U
b1111111111000000 6
0Q
1R
1\
b1111111010100010 +
b1111111010100010 7
0a
0T
1^
0c
b1000 %
b110 ,
b1111111011000000 *
b1111111011000000 2
b1111111011000000 4
1$
#5280
0$
#5290
0\
0Z
b1111111110000000 6
0V
1W
1a
b1111110101100010 +
b1111110101100010 7
0f
0Y
1c
0h
b111 ,
b1111110110000000 *
b1111110110000000 2
b1111110110000000 4
b1001 %
1$
#5300
0$
#5310
0a
0_
b1111111100000000 6
0[
1\
1f
b1111101011100010 +
b1111101011100010 7
0k
0^
1h
0m
b1010 %
b1000 ,
b1111101100000000 *
b1111101100000000 2
b1111101100000000 4
1$
#5320
0$
#5330
0f
0d
b1111111000000000 6
0`
1a
1k
b1111010111100010 +
b1111010111100010 7
0p
0c
1m
0r
b1001 ,
b1111011000000000 *
b1111011000000000 2
b1111011000000000 4
b1011 %
1$
#5340
0$
#5350
0k
0i
b1111110000000000 6
0e
1f
1p
b1110101111100010 +
b1110101111100010 7
0u
0h
1r
0w
b1100 %
b1010 ,
b1110110000000000 *
b1110110000000000 2
b1110110000000000 4
1$
#5360
0$
#5370
0p
0n
b1111100000000000 6
0j
1k
1u
b1101011111100010 +
b1101011111100010 7
0z
0m
1w
0|
b1011 ,
b1101100000000000 *
b1101100000000000 2
b1101100000000000 4
b1101 %
1$
#5380
0$
#5390
0u
0s
b1111000000000000 6
0o
1p
1z
b1010111111100010 +
b1010111111100010 7
0!"
0r
1|
0#"
b1110 %
b1100 ,
b1011000000000000 *
b1011000000000000 2
b1011000000000000 4
1$
#5400
0$
#5410
0z
0x
b1110000000000000 6
0t
1u
1!"
b101111111100010 +
b101111111100010 7
0&"
0w
1#"
0("
b1101 ,
b110000000000000 *
b110000000000000 2
b110000000000000 4
b1111 %
1$
#5420
0$
#5430
0!"
0}
b1100000000000000 6
0y
1z
b1011111111100010 +
b1011111111100010 7
1&"
0|
1("
b10000 %
b1110 ,
b1100000000000000 *
b1100000000000000 2
b1100000000000000 4
1$
#5440
0$
#5450
0&"
0$"
b1000000000000000 6
0~
b111111111100010 +
b111111111100010 7
1!"
0#"
b1111 ,
b1000000000000000 *
b1000000000000000 2
b1000000000000000 4
b10001 %
1$
#5460
0$
#5470
05
b0 6
0%"
b1111111111100010 +
b1111111111100010 7
1&"
0("
b10010 %
b10000 ,
b0 *
b0 2
b0 4
1$
#5480
0$
#5490
b10001 ,
b10 1
b10011 %
1$
#5500
0$
#5510
b10100 %
b0 1
1-
b0 ,
1$
#5520
0$
#5530
0-
b10101 %
1$
#5540
0$
#5550
b10110 %
1$
#5560
0$
#5570
b10111 %
1$
#5580
0$
#5590
b11000 %
1$
#5600
0$
#5610
b11001 %
1$
#5620
0$
#5630
b11010 %
1$
#5640
0$
#5650
b11011 %
1$
#5660
0$
#5670
b11100 %
1$
#5680
0$
#5690
b11101 %
1$
#5700
0$
#5710
b11110 %
1$
#5720
0$
#5730
b11111 %
1$
#5740
0$
#5750
b100000 %
1$
#5760
0$
#5770
b100001 %
1$
#5780
0$
#5790
b100010 %
1$
#5800
0$
#5810
b100011 %
1$
#5820
0$
#5830
b100100 %
1$
#5840
0$
#5850
b100101 %
1$
#5860
0$
#5870
b100110 %
1$
#5880
0$
#5890
b100111 %
1$
#5900
0$
#5910
b101000 %
1$
#5920
0$
#5930
b101001 %
1$
#5940
0$
#5950
b101010 %
1$
#5960
0$
#5970
b101011 %
1$
#5980
0$
#5990
b101100 %
1$
#6000
0$
#6010
b101101 %
1$
#6020
0$
#6030
b101110 %
1$
#6040
0$
#6050
b101111 %
1$
#6060
0$
#6070
b110000 %
1$
#6080
0$
#6090
b110001 %
1$
#6100
0$
#6110
b110010 %
1$
#6120
0$
#6130
b110011 %
1$
#6140
0$
#6150
b110100 %
1$
#6160
0$
#6170
b110101 %
1$
#6180
0$
#6190
b110110 %
1$
#6200
0$
#6210
b110111 %
1$
#6220
0$
#6230
b111000 %
1$
#6240
0$
#6250
b111001 %
1$
#6260
0$
#6270
b111010 %
1$
#6280
0$
#6290
b111011 %
1$
#6300
0$
#6310
b111100 %
1$
#6320
0$
#6330
b111101 %
1$
#6340
0$
#6350
b111110 %
1$
#6360
0$
#6370
b111111 %
1$
#6380
0$
#6390
b1000000 %
1$
#6400
0$
#6410
b1000001 %
1$
#6420
0$
#6430
b1000010 %
1$
#6440
0$
#6450
b1000011 %
1$
#6460
0$
#6470
b1000100 %
1$
#6480
0$
#6490
b1000101 %
1$
#6500
0$
#6510
b1000110 %
1$
#6520
0$
#6530
b1000111 %
1$
#6540
0$
#6550
b1001000 %
1$
#6560
0$
#6570
b1001001 %
1$
#6580
0$
#6590
b1001010 %
1$
#6600
0$
#6610
b1001011 %
1$
#6620
0$
#6630
b1001100 %
1$
#6640
0$
#6650
b1001101 %
1$
#6660
0$
#6670
b1001110 %
1$
#6680
0$
#6690
b1001111 %
1$
#6700
0$
#6710
b1010000 %
1$
#6720
0$
#6730
b1010001 %
1$
#6740
0$
#6750
b1010010 %
1$
#6760
0$
#6770
b1010011 %
1$
#6780
0$
#6790
b1010100 %
1$
#6800
0$
#6810
b1010101 %
1$
#6820
0$
#6830
b1010110 %
1$
#6840
0$
#6850
b1010111 %
1$
#6860
0$
#6870
b1011000 %
1$
#6880
0$
#6890
b1011001 %
1$
#6900
0$
#6910
b1011010 %
1$
#6920
0$
#6930
b1011011 %
1$
#6940
0$
#6950
b1011100 %
1$
#6960
0$
#6970
b1011101 %
1$
#6980
0$
#6990
b1011110 %
1$
#7000
0$
#7010
b1011111 %
1$
#7020
0$
#7030
b1100000 %
1$
#7040
0$
#7050
b1100001 %
1$
#7060
0$
#7070
b1100010 %
1$
#7080
0$
#7090
b1100011 %
1$
#7100
0$
#7110
b1100100 %
1$
#7120
0$
#7130
b1100101 %
1$
#7140
0$
#7150
b1100110 %
1$
#7160
0$
#7170
b1100111 %
1$
#7180
0$
#7190
b1101000 %
1$
#7200
0$
#7210
b1101001 %
1$
#7220
0$
#7230
b1101010 %
1$
#7240
0$
#7250
b1101011 %
1$
#7260
0$
#7270
b1101100 %
1$
#7280
0$
#7290
b1101101 %
1$
#7300
0$
#7310
b1101110 %
1$
#7320
0$
#7330
b1101111 %
1$
#7340
0$
#7350
b1110000 %
1$
#7360
0$
#7370
b1110001 %
1$
#7380
0$
#7390
b1110010 %
1$
#7400
0$
#7410
b1110011 %
1$
#7420
0$
#7430
b1110100 %
1$
#7440
0$
#7450
b1110101 %
1$
#7460
0$
#7470
b1110110 %
1$
#7480
0$
#7490
b1110111 %
1$
#7500
0$
#7510
b1111000 %
1$
#7520
0$
#7530
b1111001 %
1$
#7540
0$
#7550
b1111010 %
1$
#7560
0$
#7570
b1111011 %
1$
#7580
0$
#7590
b1111100 %
1$
#7600
0$
#7610
b1111101 %
1$
#7620
0$
#7630
b1111110 %
1$
#7640
0$
#7650
b1111111 %
1$
#7660
0$
#7670
b10000000 %
1$
#7680
0$
#7690
b10000001 %
1$
#7700
0$
#7710
b10000010 %
1$
#7720
0$
#7730
b10000011 %
1$
#7740
0$
#7750
b10000100 %
1$
#7760
0$
#7770
b10000101 %
1$
#7780
0$
#7790
b10000110 %
1$
#7800
0$
#7810
b10000111 %
1$
#7820
0$
#7830
b10001000 %
1$
#7840
0$
#7850
b10001001 %
1$
#7860
0$
#7870
b10001010 %
1$
#7880
0$
#7890
b10001011 %
1$
#7900
0$
#7910
b10001100 %
1$
#7920
0$
#7930
b10001101 %
1$
#7940
0$
#7950
b10001110 %
1$
#7960
0$
#7970
b10001111 %
1$
#7980
0$
#7990
b10010000 %
1$
#8000
0$
#8010
b10010001 %
1$
#8020
0$
#8030
b10010010 %
1$
#8040
0$
#8050
b10010011 %
1$
#8060
0$
#8070
b10010100 %
1$
#8080
0$
#8090
b10010101 %
1$
