sim/topsim/top_tb.vcd
$date
	Thu Jun  2 11:49:47 2022
$end
$version
	Icarus Verilog
$end
$timescale
	10ns
$end
$scope module top_tb $end
$var reg 1 ! clk $end
$var reg 1 " data $end
$scope module topmodule $end
$var wire 1 ! CLK $end
$var wire 1 " PIN_9 $end
$var wire 16 # test_out [15:0] $end
$var wire 1 $ data_valid $end
$var wire 16 % adc_data [15:0] $end
$var wire 1 & PIN_7 $end
$var wire 1 ' PIN_2 $end
$scope module adc_spi $end
$var wire 1 ! CLOCK $end
$var wire 1 " DATA_IN $end
$var reg 1 & CS $end
$var reg 16 ( DATA_OUT [15:0] $end
$var reg 1 $ DV $end
$var reg 1 ' SCLK $end
$var reg 9 ) count [8:0] $end
$var reg 1 * r_Data_in $end
$var reg 1 + r_SPI_CLK $end
$var reg 4 , r_SPI_count_clk [3:0] $end
$var reg 5 - r_SPI_count_pulse [4:0] $end
$upscope $end
$scope module shift_1 $end
$var wire 1 ! clk $end
$var wire 16 . data [15:0] $end
$var wire 1 $ en $end
$var reg 16 / out_0 [15:0] $end
$var reg 16 0 out_1 [15:0] $end
$var reg 16 1 out_2 [15:0] $end
$var reg 16 2 out_3 [15:0] $end
$var reg 16 3 out_4 [15:0] $end
$var reg 16 4 out_5 [15:0] $end
$var reg 16 5 out_6 [15:0] $end
$var reg 16 6 out_7 [15:0] $end
$upscope $end
$upscope $end
$upscope $end
$enddefinitions $end
#0
$dumpvars
bx 6
bx 5
bx 4
bx 3
bx 2
bx 1
bx 0
bx /
bx .
b0 -
bx ,
1+
0*
b0 )
bx (
1'
x&
bx %
x$
bx #
0"
1!
$end
#10
0!
#20
1!
#30
0!
1"
#40
1*
1!
#50
0!
#60
0*
1!
0"
#70
0!
#80
1!
#90
0!
1"
#100
1*
1!
#110
0!
#120
0*
1!
0"
#130
0!
#140
1!
#150
0!
1"
#160
1*
1!
#170
0!
#180
0*
1!
0"
#190
0!
#200
1!
#210
0!
1"
#220
1*
1!
#230
0!
#240
0*
1!
0"
#250
0!
#260
1!
#270
0!
1"
#280
1*
1!
#290
0!
#300
0*
1!
0"
#310
0!
#320
1!
#330
0!
1"
#340
1*
1!
#350
0!
#360
0*
1!
0"
#370
0!
#380
1!
#390
0!
1"
#400
1*
1!
#410
0!
#420
0*
1!
0"
#430
0!
#440
1!
#450
0!
1"
#460
1*
1!
#470
0!
#480
0*
1!
0"
#490
0!
#500
1!
#510
0!
1"
#520
1*
1!
#530
0!
#540
0*
1!
0"
#550
0!
#560
1!
#570
0!
1"
#580
1*
1!
#590
0!
#600
0*
1!
0"
#610
0!
#620
1!
#630
0!
1"
#640
1*
1!
#650
0!
#660
0*
1!
0"
#670
0!
#680
1!
#690
0!
1"
#700
1*
1!
#710
0!
#720
0*
1!
0"
#730
0!
#740
1!
#750
0!
1"
#760
1*
1!
#770
0!
#780
0*
1!
0"
#790
0!
#800
1!
#810
0!
1"
#820
1*
1!
#830
0!
#840
0*
1!
0"
#850
0!
#860
1!
#870
0!
1"
#880
1*
1!
#890
0!
#900
0*
1!
0"
#910
0!
#920
1!
#930
0!
1"
#940
1*
1!
#950
0!
#960
0*
1!
0"
#970
0!
#980
1!
#990
0!
1"
#1000
1*
1!
#1010
0!
#1020
0*
1!
0"
#1030
0!
#1040
1!
#1050
0!
1"
#1060
1*
1!
#1070
0!
#1080
0*
1!
0"
#1090
0!
#1100
1!
#1110
0!
1"
#1120
1*
1!
#1130
0!
#1140
0*
1!
0"
#1150
0!
#1160
1!
#1170
0!
1"
#1180
1*
1!
#1190
0!
#1200
0*
1!
0"
#1210
0!
#1220
1!
#1230
0!
1"
#1240
1*
1!
#1250
0!
#1260
0*
1!
0"
#1270
0!
#1280
1!
#1290
0!
1"
#1300
1*
1!
#1310
0!
#1320
0*
1!
0"
#1330
0!
#1340
1!
#1350
0!
1"
#1360
1*
1!
#1370
0!
#1380
0*
1!
0"
#1390
0!
#1400
1!
#1410
0!
1"
#1420
1*
1!
#1430
0!
#1440
0*
1!
0"
#1450
0!
#1460
1!
#1470
0!
1"
#1480
1*
1!
#1490
0!
#1500
0*
1!
0"
#1510
0!
#1520
1!
#1530
0!
1"
#1540
1*
1!
#1550
0!
#1560
0*
1!
0"
#1570
0!
#1580
1!
#1590
0!
1"
#1600
1*
1!
#1610
0!
#1620
0*
1!
0"
#1630
0!
#1640
1!
#1650
0!
1"
#1660
1*
1!
#1670
0!
#1680
0*
1!
0"
#1690
0!
#1700
1!
#1710
0!
1"
#1720
1*
1!
#1730
0!
#1740
0*
1!
0"
#1750
0!
#1760
1!
#1770
0!
1"
#1780
1*
1!
#1790
0!
#1800
0*
1!
0"
#1810
0!
#1820
1!
#1830
0!
1"
#1840
1*
1!
#1850
0!
#1860
0*
1!
0"
#1870
0!
#1880
1!
#1890
0!
1"
#1900
1*
1!
#1910
0!
#1920
0*
1!
0"
#1930
0!
#1940
1!
#1950
0!
1"
#1960
1*
1!
#1970
0!
#1980
0*
1!
0"
#1990
0!
#2000
1!
#2010
0!
1"
#2020
1*
1!
#2030
0!
#2040
0*
1!
0"
#2050
0!
#2060
1!
#2070
0!
1"
#2080
1*
1!
#2090
0!
#2100
0*
1!
0"
#2110
0!
#2120
1!
#2130
0!
1"
#2140
1*
1!
#2150
0!
#2160
0*
1!
0"
#2170
0!
#2180
1!
#2190
0!
1"
#2200
1*
1!
#2210
0!
#2220
0*
1!
0"
#2230
0!
#2240
1!
#2250
0!
1"
#2260
1*
1!
#2270
0!
#2280
0*
1!
0"
#2290
0!
#2300
1!
#2310
0!
1"
#2320
1*
1!
#2330
0!
#2340
0*
1!
0"
#2350
0!
#2360
1!
#2370
0!
1"
#2380
1*
1!
#2390
0!
#2400
0*
1!
0"
#2410
0!
#2420
1!
#2430
0!
1"
#2440
1*
1!
#2450
0!
#2460
0*
1!
0"
#2470
0!
#2480
1!
#2490
0!
1"
#2500
1*
1!
#2510
0!
#2520
0*
1!
0"
#2530
0!
#2540
1!
#2550
0!
1"
#2560
1*
1!
#2570
0!
#2580
0*
1!
0"
#2590
0!
#2600
1!
#2610
0!
1"
#2620
1*
1!
#2630
0!
#2640
0*
1!
0"
#2650
0!
#2660
1!
#2670
0!
1"
#2680
1*
1!
#2690
0!
#2700
0*
1!
0"
#2710
0!
#2720
1!
#2730
0!
1"
#2740
1*
1!
#2750
0!
#2760
0*
1!
0"
#2770
0!
#2780
1!
#2790
0!
1"
#2800
1*
1!
#2810
0!
#2820
0*
1!
0"
#2830
0!
#2840
1!
#2850
0!
1"
#2860
1*
1!
#2870
0!
#2880
0*
1!
0"
#2890
0!
#2900
1!
#2910
0!
1"
#2920
1*
1!
#2930
0!
#2940
0*
1!
0"
#2950
0!
#2960
1!
#2970
0!
1"
#2980
1*
1!
#2990
0!
#3000
0*
1!
0"
#3010
0!
#3020
1!
#3030
0!
1"
#3040
1*
1!
#3050
0!
#3060
0*
1!
0"
#3070
0!
#3080
1!
#3090
0!
1"
#3100
1*
1!
#3110
0!
#3120
0*
1!
0"
#3130
0!
#3140
1!
#3150
0!
1"
#3160
1*
1!
#3170
0!
#3180
0*
1!
0"
#3190
0!
#3200
1!
#3210
0!
1"
#3220
1*
1!
#3230
0!
#3240
0*
1!
0"
#3250
0!
#3260
1!
#3270
0!
1"
#3280
1*
1!
#3290
0!
#3300
0*
1!
0"
#3310
0!
#3320
1!
#3330
0!
1"
#3340
1*
1!
#3350
0!
#3360
0*
1!
0"
#3370
0!
#3380
1!
#3390
0!
1"
#3400
1*
1!
#3410
0!
#3420
0*
1!
0"
#3430
0!
#3440
1!
#3450
0!
1"
#3460
1*
1!
#3470
0!
#3480
0*
1!
0"
#3490
0!
#3500
1!
#3510
0!
1"
#3520
1*
1!
#3530
0!
#3540
0*
1!
0"
#3550
0!
#3560
1!
#3570
0!
1"
#3580
1*
1!
#3590
0!
#3600
0*
1!
0"
#3610
0!
#3620
1!
#3630
0!
1"
#3640
1*
1!
#3650
0!
#3660
0*
1!
0"
#3670
0!
#3680
1!
#3690
0!
1"
#3700
1*
1!
#3710
0!
#3720
0*
1!
0"
#3730
0!
#3740
1!
#3750
0!
1"
#3760
1*
1!
#3770
0!
#3780
0*
1!
0"
#3790
0!
#3800
1!
#3810
0!
1"
#3820
1*
1!
#3830
0!
#3840
0*
1!
0"
#3850
0!
#3860
1!
#3870
0!
1"
#3880
1*
1!
#3890
0!
#3900
0*
1!
0"
#3910
0!
#3920
1!
#3930
0!
1"
#3940
1*
1!
#3950
0!
#3960
0*
1!
0"
#3970
0!
#3980
1!
#3990
0!
1"
#4000
1*
1!
#4010
0!
#4020
0*
1!
0"
#4030
0!
#4040
1!
#4050
0!
1"
#4060
1*
1!
#4070
0!
#4080
0*
1!
0"
#4090
0!
#4100
1!
#4110
0!
1"
#4120
1*
1!
#4130
0!
#4140
0*
1!
0"
#4150
0!
#4160
1!
#4170
0!
1"
#4180
1*
1!
#4190
0!
#4200
0*
1!
0"
#4210
0!
#4220
1!
#4230
0!
1"
#4240
1*
1!
#4250
0!
#4260
0*
1!
0"
#4270
0!
#4280
1!
#4290
0!
1"
#4300
1*
1!
#4310
0!
#4320
0*
1!
0"
#4330
0!
#4340
1!
#4350
0!
1"
#4360
1*
1!
#4370
0!
#4380
0*
1!
0"
#4390
0!
#4400
1!
#4410
0!
1"
#4420
1*
1!
#4430
0!
#4440
0*
1!
0"
#4450
0!
#4460
1!
#4470
0!
1"
#4480
1*
1!
#4490
0!
#4500
0*
1!
0"
#4510
0!
#4520
1!
#4530
0!
1"
#4540
1*
1!
#4550
0!
#4560
0*
1!
0"
#4570
0!
#4580
1!
#4590
0!
1"
#4600
1*
1!
#4610
0!
#4620
0*
1!
0"
#4630
0!
#4640
1!
#4650
0!
1"
#4660
1*
1!
#4670
0!
#4680
0*
1!
0"
#4690
0!
#4700
1!
#4710
0!
1"
#4720
1*
1!
#4730
0!
#4740
0*
1!
0"
#4750
0!
#4760
1!
#4770
0!
1"
#4780
1*
1!
#4790
0!
#4800
0*
1!
0"
#4810
0!
#4820
1!
#4830
0!
1"
#4840
1*
1!
#4850
0!
#4860
0*
1!
0"
#4870
0!
#4880
1!
#4890
0!
1"
#4900
1*
1!
#4910
0!
#4920
0*
1!
0"
#4930
0!
#4940
1!
#4950
0!
1"
#4960
1*
1!
#4970
0!
#4980
0*
1!
0"
#4990
0!
#5000
1!
#5010
0!
1"
#5020
1*
1!
#5030
0!
#5040
0*
1!
0"
#5050
0!
#5060
1!
#5070
0!
1"
#5080
1*
1!
#5090
0!
#5100
0*
1!
0"
#5110
0!
#5120
1!
#5130
0!
1"
#5140
1*
1!
#5150
0!
#5160
0*
1!
0"
#5170
0!
#5180
1!
#5190
0!
1"
#5200
1*
1!
#5210
0!
#5220
0*
1!
0"
#5230
0!
#5240
1!
#5250
0!
1"
#5260
1*
1!
#5270
0!
#5280
0*
1!
0"
#5290
0!
#5300
1!
#5310
0!
1"
#5320
1*
1!
#5330
0!
#5340
0*
1!
0"
#5350
0!
#5360
1!
#5370
0!
1"
#5380
1*
1!
#5390
0!
#5400
0*
1!
0"
#5410
0!
#5420
1!
#5430
0!
1"
#5440
1*
1!
#5450
0!
#5460
0*
1!
0"
#5470
0!
#5480
1!
#5490
0!
1"
#5500
1*
1!
#5510
0!
#5520
0*
1!
0"
#5530
0!
#5540
1!
#5550
0!
1"
#5560
1*
1!
#5570
0!
#5580
0*
1!
0"
#5590
0!
#5600
1!
#5610
0!
1"
#5620
1*
1!
#5630
0!
#5640
0*
1!
0"
#5650
0!
#5660
1!
#5670
0!
1"
#5680
1*
1!
#5690
0!
#5700
0*
1!
0"
#5710
0!
#5720
1!
#5730
0!
1"
#5740
1*
1!
#5750
0!
#5760
0*
1!
0"
#5770
0!
#5780
1!
#5790
0!
1"
#5800
1*
1!
#5810
0!
#5820
0*
1!
0"
#5830
0!
#5840
1!
#5850
0!
1"
#5860
1*
1!
#5870
0!
#5880
0*
1!
0"
#5890
0!
#5900
1!
#5910
0!
1"
#5920
1*
1!
#5930
0!
#5940
0*
1!
0"
#5950
0!
#5960
1!
#5970
0!
1"
#5980
1*
1!
#5990
0!
#6000
0*
1!
0"
#6010
0!
#6020
1!
#6030
0!
1"
#6040
1*
1!
#6050
0!
#6060
0*
1!
0"
#6070
0!
#6080
1!
#6090
0!
1"
#6100
1*
1!
#6110
0!
#6120
0*
1!
0"
#6130
0!
#6140
1!
#6150
0!
1"
#6160
1*
1!
#6170
0!
#6180
0*
1!
0"
#6190
0!
#6200
1!
#6210
0!
1"
#6220
1*
1!
#6230
0!
#6240
0*
1!
0"
#6250
0!
#6260
1!
#6270
0!
1"
#6280
1*
1!
#6290
0!
#6300
0*
1!
0"
#6310
0!
#6320
1!
#6330
0!
1"
#6340
1*
1!
#6350
0!
#6360
0*
1!
0"
#6370
0!
#6380
1!
#6390
0!
1"
#6400
1*
1!
#6410
0!
#6420
0*
1!
0"
#6430
0!
#6440
1!
#6450
0!
1"
#6460
1*
1!
#6470
0!
#6480
0*
1!
0"
#6490
0!
#6500
1!
#6510
0!
1"
#6520
1*
1!
#6530
0!
#6540
0*
1!
0"
#6550
0!
#6560
1!
#6570
0!
1"
#6580
1*
1!
#6590
0!
#6600
0*
1!
0"
#6610
0!
#6620
1!
#6630
0!
1"
#6640
1*
1!
#6650
0!
#6660
0*
1!
0"
#6670
0!
#6680
1!
#6690
0!
1"
#6700
1*
1!
#6710
0!
#6720
0*
1!
0"
#6730
0!
#6740
1!
#6750
0!
1"
#6760
1*
1!
#6770
0!
#6780
0*
1!
0"
#6790
0!
#6800
1!
#6810
0!
1"
#6820
1*
1!
#6830
0!
#6840
0*
1!
0"
#6850
0!
#6860
1!
#6870
0!
1"
#6880
1*
1!
#6890
0!
#6900
0*
1!
0"
#6910
0!
#6920
1!
#6930
0!
1"
#6940
1*
1!
#6950
0!
#6960
0*
1!
0"
#6970
0!
#6980
1!
#6990
0!
1"
#7000
1*
1!
#7010
0!
#7020
0*
1!
0"
#7030
0!
#7040
1!
#7050
0!
1"
#7060
1*
1!
#7070
0!
#7080
0*
1!
0"
#7090
0!
#7100
1!
#7110
0!
1"
#7120
1*
1!
#7130
0!
#7140
0*
1!
0"
#7150
0!
#7160
1!
#7170
0!
1"
#7180
1*
1!
#7190
0!
#7200
0*
1!
0"
#7210
0!
#7220
1!
#7230
0!
1"
#7240
1*
1!
#7250
0!
#7260
0*
1!
0"
#7270
0!
#7280
1!
#7290
0!
1"
#7300
1*
1!
#7310
0!
#7320
0*
1!
0"
#7330
0!
#7340
1!
#7350
0!
1"
#7360
1*
1!
#7370
0!
#7380
0*
1!
0"
#7390
0!
#7400
1!
#7410
0!
1"
#7420
1*
1!
#7430
0!
#7440
0*
1!
0"
#7450
0!
#7460
1!
#7470
0!
1"
#7480
1*
1!
#7490
0!
#7500
0*
1!
0"
#7510
0!
#7520
1!
#7530
0!
1"
#7540
1*
1!
#7550
0!
#7560
0*
1!
0"
#7570
0!
#7580
1!
#7590
0!
1"
#7600
1*
1!
#7610
0!
#7620
0*
1!
0"
#7630
0!
#7640
1!
#7650
0!
1"
#7660
1*
1!
#7670
0!
#7680
0*
1!
0"
#7690
0!
#7700
1!
#7710
0!
1"
#7720
1*
1!
#7730
0!
#7740
0*
1!
0"
#7750
0!
#7760
1!
#7770
0!
1"
#7780
1*
1!
#7790
0!
#7800
0*
1!
0"
#7810
0!
#7820
1!
#7830
0!
1"
#7840
1*
1!
#7850
0!
#7860
0*
1!
0"
#7870
0!
#7880
1!
#7890
0!
1"
#7900
1*
1!
#7910
0!
#7920
0*
1!
0"
#7930
0!
#7940
1!
#7950
0!
1"
#7960
1*
1!
#7970
0!
#7980
0*
1!
0"
#7990
0!
#8000
1!
#8010
0!
1"
#8020
1*
1!
#8030
0!
#8040
0*
1!
0"
#8050
0!
#8060
1!
#8070
0!
1"
#8080
1*
1!
#8090
0!
#8100
0*
1!
0"
#8110
0!
#8120
1!
#8130
0!
1"
#8140
1*
1!
#8150
0!
#8160
0*
1!
0"
#8170
0!
#8180
1!
#8190
0!
1"
#8200
1*
1!
#8210
0!
#8220
0*
1!
0"
#8230
0!
#8240
1!
#8250
0!
1"
#8260
1*
1!
#8270
0!
#8280
0*
1!
0"
#8290
0!
#8300
1!
#8310
0!
1"
#8320
1*
1!
#8330
0!
#8340
0*
1!
0"
#8350
0!
#8360
1!
#8370
0!
1"
#8380
1*
1!
#8390
0!
#8400
0*
1!
0"
#8410
0!
#8420
1!
#8430
0!
1"
#8440
1*
1!
#8450
0!
#8460
0*
1!
0"
#8470
0!
#8480
1!
#8490
0!
1"
#8500
1*
1!
#8510
0!
#8520
0*
1!
0"
#8530
0!
#8540
1!
#8550
0!
1"
#8560
1*
1!
#8570
0!
#8580
0*
1!
0"
#8590
0!
#8600
1!
#8610
0!
1"
#8620
1*
1!
#8630
0!
#8640
0*
1!
0"
#8650
0!
#8660
1!
#8670
0!
1"
#8680
1*
1!
#8690
0!
#8700
0*
1!
0"
#8710
0!
#8720
1!
#8730
0!
1"
#8740
1*
1!
#8750
0!
#8760
0*
1!
0"
#8770
0!
#8780
1!
#8790
0!
1"
#8800
1*
1!
#8810
0!
#8820
0*
1!
0"
#8830
0!
#8840
1!
#8850
0!
1"
#8860
1*
1!
#8870
0!
#8880
0*
1!
0"
#8890
0!
#8900
1!
#8910
0!
1"
#8920
1*
1!
#8930
0!
#8940
0*
1!
0"
#8950
0!
#8960
1!
#8970
0!
1"
#8980
1*
1!
#8990
0!
#9000
0*
1!
0"
#9010
0!
#9020
1!
#9030
0!
1"
#9040
1*
1!
#9050
0!
#9060
0*
1!
0"
#9070
0!
#9080
1!
#9090
0!
1"
#9100
1*
1!
#9110
0!
#9120
0*
1!
0"
#9130
0!
#9140
1!
#9150
0!
1"
#9160
1*
1!
#9170
0!
#9180
0*
1!
0"
#9190
0!
#9200
1!
#9210
0!
1"
#9220
1*
1!
#9230
0!
#9240
0*
1!
0"
#9250
0!
#9260
1!
#9270
0!
1"
#9280
1*
1!
#9290
0!
#9300
0*
1!
0"
#9310
0!
#9320
1!
#9330
0!
1"
#9340
1*
1!
#9350
0!
#9360
0*
1!
0"
#9370
0!
#9380
1!
#9390
0!
1"
#9400
1*
1!
#9410
0!
#9420
0*
1!
0"
#9430
0!
#9440
1!
#9450
0!
1"
#9460
1*
1!
#9470
0!
#9480
0*
1!
0"
#9490
0!
#9500
1!
#9510
0!
1"
#9520
1*
1!
#9530
0!
#9540
0*
1!
0"
#9550
0!
#9560
1!
#9570
0!
1"
#9580
1*
1!
#9590
0!
#9600
0*
1!
0"
#9610
0!
#9620
1!
#9630
0!
1"
#9640
1*
1!
#9650
0!
#9660
0*
1!
0"
#9670
0!
#9680
1!
#9690
0!
1"
#9700
1*
1!
#9710
0!
#9720
0*
1!
0"
#9730
0!
#9740
1!
#9750
0!
1"
#9760
1*
1!
#9770
0!
#9780
0*
1!
0"
#9790
0!
#9800
1!
#9810
0!
1"
#9820
1*
1!
#9830
0!
#9840
0*
1!
0"
#9850
0!
#9860
1!
#9870
0!
1"
#9880
1*
1!
#9890
0!
#9900
0*
1!
0"
#9910
0!
#9920
1!
#9930
0!
1"
#9940
1*
1!
#9950
0!
#9960
0*
1!
0"
#9970
0!
#9980
1!
#9990
0!
1"
#10000
1*
1!
#10010
0!
#10020
0*
1!
0"
#10030
0!
#10040
1!
#10050
0!
1"
#10060
1*
1!
#10070
0!
#10080
0*
1!
0"
#10090
0!
#10100
1!
#10110
0!
1"
#10120
1*
1!
#10130
0!
#10140
0*
1!
0"
#10150
0!
#10160
1!
#10170
0!
1"
#10180
1*
1!
#10190
0!
#10200
0*
1!
0"
#10210
0!
#10220
1!
#10230
0!
1"
#10240
1*
1!
#10250
0!
#10260
0*
1!
0"
#10270
0!
#10280
1!
#10290
0!
1"
#10300
1*
1!
#10310
0!
#10320
0*
1!
0"
#10330
0!
#10340
1!
#10350
0!
1"
#10360
1*
1!
#10370
0!
#10380
0*
1!
0"
#10390
0!
#10400
1!
#10410
0!
1"
#10420
1*
1!
#10430
0!
#10440
0*
1!
0"
#10450
0!
#10460
1!
#10470
0!
1"
#10480
1*
1!
#10490
0!
#10500
0*
1!
0"
#10510
0!
#10520
1!
#10530
0!
1"
#10540
1*
1!
#10550
0!
#10560
0*
1!
0"
#10570
0!
#10580
1!
#10590
0!
1"
#10600
1*
1!
#10610
0!
#10620
0*
1!
0"
#10630
0!
#10640
1!
#10650
0!
1"
#10660
1*
1!
#10670
0!
#10680
0*
1!
0"
#10690
0!
#10700
1!
#10710
0!
1"
#10720
1*
1!
#10730
0!
#10740
0*
1!
0"
#10750
0!
#10760
1!
#10770
0!
1"
#10780
1*
1!
#10790
0!
#10800
0*
1!
0"
#10810
0!
#10820
1!
#10830
0!
1"
#10840
1*
1!
#10850
0!
#10860
0*
1!
0"
#10870
0!
#10880
1!
#10890
0!
1"
#10900
1*
1!
#10910
0!
#10920
0*
1!
0"
#10930
0!
#10940
1!
#10950
0!
1"
#10960
1*
1!
#10970
0!
#10980
0*
1!
0"
#10990
0!
#11000
1!
#11010
0!
1"
#11020
1*
1!
#11030
0!
#11040
0*
1!
0"
#11050
0!
#11060
1!
#11070
0!
1"
#11080
1*
1!
#11090
0!
#11100
0*
1!
0"
#11110
0!
#11120
1!
#11130
0!
1"
#11140
1*
1!
#11150
0!
#11160
0*
1!
0"
#11170
0!
#11180
1!
#11190
0!
1"
#11200
1*
1!
#11210
0!
#11220
0*
1!
0"
#11230
0!
#11240
1!
#11250
0!
1"
#11260
1*
1!
#11270
0!
#11280
0*
1!
0"
#11290
0!
#11300
1!
#11310
0!
1"
#11320
1*
1!
#11330
0!
#11340
0*
1!
0"
#11350
0!
#11360
1!
#11370
0!
1"
#11380
1*
1!
#11390
0!
#11400
0*
1!
0"
#11410
0!
#11420
1!
#11430
0!
1"
#11440
1*
1!
#11450
0!
#11460
0*
1!
0"
#11470
0!
#11480
1!
#11490
0!
1"
#11500
1*
1!
#11510
0!
#11520
0*
1!
0"
#11530
0!
#11540
1!
#11550
0!
1"
#11560
1*
1!
#11570
0!
#11580
0*
1!
0"
#11590
0!
#11600
1!
#11610
0!
1"
#11620
1*
1!
#11630
0!
#11640
0*
1!
0"
#11650
0!
#11660
1!
#11670
0!
1"
#11680
1*
1!
#11690
0!
#11700
0*
1!
0"
#11710
0!
#11720
1!
#11730
0!
1"
#11740
1*
1!
#11750
0!
#11760
0*
1!
0"
#11770
0!
#11780
1!
#11790
0!
1"
#11800
1*
1!
#11810
0!
#11820
0*
1!
0"
#11830
0!
#11840
1!
#11850
0!
1"
#11860
1*
1!
#11870
0!
#11880
0*
1!
0"
#11890
0!
#11900
1!
#11910
0!
1"
#11920
1*
1!
#11930
0!
#11940
0*
1!
0"
#11950
0!
#11960
1!
#11970
0!
1"
#11980
1*
1!
#11990
0!
#12000
0*
1!
0"
#12010
0!
#12020
1!
#12030
0!
1"
#12040
1*
1!
#12050
0!
#12060
0*
1!
0"
#12070
0!
#12080
1!
#12090
0!
1"
#12100
1*
1!
#12110
0!
#12120
0*
1!
0"
#12130
0!
#12140
1!
#12150
0!
1"
#12160
1*
1!
#12170
0!
#12180
0*
1!
0"
#12190
0!
#12200
1!
#12210
0!
1"
#12220
1*
1!
#12230
0!
#12240
0*
1!
0"
#12250
0!
#12260
1!
#12270
0!
1"
#12280
1*
1!
#12290
0!
#12300
0*
1!
0"
#12310
0!
#12320
1!
#12330
0!
1"
#12340
1*
1!
#12350
0!
#12360
0*
1!
0"
#12370
0!
#12380
1!
#12390
0!
1"
#12400
1*
1!
#12410
0!
#12420
0*
1!
0"
#12430
0!
#12440
1!
#12450
0!
1"
#12460
1*
1!
#12470
0!
#12480
0*
1!
0"
#12490
0!
#12500
1!
#12510
0!
1"
#12520
1*
1!
#12530
0!
#12540
0*
1!
0"
#12550
0!
#12560
1!
#12570
0!
1"
#12580
1*
1!
#12590
0!
#12600
0*
1!
0"
#12610
0!
#12620
1!
#12630
0!
1"
#12640
1*
1!
#12650
0!
#12660
0*
1!
0"
#12670
0!
#12680
1!
#12690
0!
1"
#12700
1*
1!
#12710
0!
#12720
0*
1!
0"
#12730
0!
#12740
1!
#12750
0!
1"
#12760
1*
1!
#12770
0!
#12780
0*
1!
0"
#12790
0!
#12800
1!
#12810
0!
1"
#12820
1*
1!
#12830
0!
#12840
0*
1!
0"
#12850
0!
#12860
1!
#12870
0!
1"
#12880
1*
1!
#12890
0!
#12900
0*
1!
0"
#12910
0!
#12920
1!
#12930
0!
1"
#12940
1*
1!
#12950
0!
#12960
0*
1!
0"
#12970
0!
#12980
1!
#12990
0!
1"
#13000
1*
1!
#13010
0!
#13020
0*
1!
0"
#13030
0!
#13040
1!
#13050
0!
1"
#13060
1*
1!
#13070
0!
#13080
0*
1!
0"
#13090
0!
#13100
1!
#13110
0!
1"
#13120
1*
1!
#13130
0!
#13140
0*
1!
0"
#13150
0!
#13160
1!
#13170
0!
1"
#13180
1*
1!
#13190
0!
#13200
0*
1!
0"
#13210
0!
#13220
1!
#13230
0!
1"
#13240
1*
1!
#13250
0!
#13260
0*
1!
0"
#13270
0!
#13280
1!
#13290
0!
1"
#13300
1*
1!
#13310
0!
#13320
0*
1!
0"
#13330
0!
#13340
1!
#13350
0!
1"
#13360
1*
1!
#13370
0!
#13380
0*
1!
0"
#13390
0!
#13400
1!
#13410
0!
1"
#13420
1*
1!
#13430
0!
#13440
0*
1!
0"
#13450
0!
#13460
1!
#13470
0!
1"
#13480
1*
1!
#13490
0!
#13500
0*
1!
0"
#13510
0!
#13520
1!
#13530
0!
1"
#13540
1*
1!
#13550
0!
#13560
0*
1!
0"
#13570
0!
#13580
1!
#13590
0!
1"
#13600
1*
1!
#13610
0!
#13620
0*
1!
0"
#13630
0!
#13640
1!
#13650
0!
1"
#13660
1*
1!
#13670
0!
#13680
0*
1!
0"
#13690
0!
#13700
1!
#13710
0!
1"
#13720
1*
1!
#13730
0!
#13740
0*
1!
0"
#13750
0!
#13760
1!
#13770
0!
1"
#13780
1*
1!
#13790
0!
#13800
0*
1!
0"
#13810
0!
#13820
1!
#13830
0!
1"
#13840
1*
1!
#13850
0!
#13860
0*
1!
0"
#13870
0!
#13880
1!
#13890
0!
1"
#13900
1*
1!
#13910
0!
#13920
0*
1!
0"
#13930
0!
#13940
1!
#13950
0!
1"
#13960
1*
1!
#13970
0!
#13980
0*
1!
0"
#13990
0!
#14000
1!
#14010
0!
1"
#14020
1*
1!
#14030
0!
#14040
0*
1!
0"
#14050
0!
#14060
1!
#14070
0!
1"
#14080
1*
1!
#14090
0!
#14100
0*
1!
0"
#14110
0!
#14120
1!
#14130
0!
1"
#14140
1*
1!
#14150
0!
#14160
0*
1!
0"
#14170
0!
#14180
1!
#14190
0!
1"
#14200
1*
1!
#14210
0!
#14220
0*
1!
0"
#14230
0!
#14240
1!
#14250
0!
1"
#14260
1*
1!
#14270
0!
#14280
0*
1!
0"
#14290
0!
#14300
1!
#14310
0!
1"
#14320
1*
1!
#14330
0!
#14340
0*
1!
0"
#14350
0!
#14360
1!
#14370
0!
1"
#14380
1*
1!
#14390
0!
#14400
0*
1!
0"
#14410
0!
#14420
1!
#14430
0!
1"
#14440
1*
1!
#14450
0!
#14460
0*
1!
0"
#14470
0!
#14480
1!
#14490
0!
1"
#14500
1*
1!
#14510
0!
#14520
0*
1!
0"
#14530
0!
#14540
1!
#14550
0!
1"
#14560
1*
1!
#14570
0!
#14580
0*
1!
0"
#14590
0!
#14600
1!
#14610
0!
1"
#14620
1*
1!
#14630
0!
#14640
0*
1!
0"
#14650
0!
#14660
1!
#14670
0!
1"
#14680
1*
1!
#14690
0!
#14700
0*
1!
0"
#14710
0!
#14720
1!
#14730
0!
1"
#14740
1*
1!
#14750
0!
#14760
0*
1!
0"
#14770
0!
#14780
1!
#14790
0!
1"
#14800
1*
1!
#14810
0!
#14820
0*
1!
0"
#14830
0!
#14840
1!
#14850
0!
1"
#14860
1*
1!
#14870
0!
#14880
0*
1!
0"
#14890
0!
#14900
1!
#14910
0!
1"
#14920
1*
1!
#14930
0!
#14940
0*
1!
0"
#14950
0!
#14960
1!
#14970
0!
1"
#14980
1*
1!
#14990
0!
#15000
0*
1!
0"
#15010
0!
#15020
1!
#15030
0!
1"
#15040
1*
1!
#15050
0!
#15060
0*
1!
0"
#15070
0!
#15080
1!
#15090
0!
1"
#15100
1*
1!
#15110
0!
#15120
0*
1!
0"
#15130
0!
#15140
1!
#15150
0!
1"
#15160
1*
1!
#15170
0!
#15180
0*
1!
0"
#15190
0!
#15200
1!
#15210
0!
1"
#15220
1*
1!
#15230
0!
#15240
0*
1!
0"
#15250
0!
#15260
1!
#15270
0!
1"
#15280
1*
1!
#15290
0!
#15300
0*
1!
0"
#15310
0!
#15320
1!
#15330
0!
1"
#15340
1*
1!
#15350
0!
#15360
0*
1!
0"
#15370
0!
#15380
1!
#15390
0!
1"
#15400
1*
1!
#15410
0!
#15420
0*
1!
0"
#15430
0!
#15440
1!
#15450
0!
1"
#15460
1*
1!
#15470
0!
#15480
0*
1!
0"
#15490
0!
#15500
1!
#15510
0!
1"
#15520
1*
1!
#15530
0!
#15540
0*
1!
0"
#15550
0!
#15560
1!
#15570
0!
1"
#15580
1*
1!
#15590
0!
#15600
0*
1!
0"
#15610
0!
#15620
1!
#15630
0!
1"
#15640
1*
1!
#15650
0!
#15660
0*
1!
0"
#15670
0!
#15680
1!
#15690
0!
1"
#15700
1*
1!
#15710
0!
#15720
0*
1!
0"
#15730
0!
#15740
1!
#15750
0!
1"
#15760
1*
1!
#15770
0!
#15780
0*
1!
0"
#15790
0!
#15800
1!
#15810
0!
1"
#15820
1*
1!
#15830
0!
#15840
0*
1!
0"
#15850
0!
#15860
1!
